171,171,421277,421277,-2087127761,-2087127761,"SEO ve Google Adwords Eğitimi","SEO ve Google Adwords Eğitimi",http://t.groupon.com/r?tsToken=US_AFF_0_204403_212556_0&url=http%3A%2F%2Fwww.sehirfirsati.com%2Fdeals%2Fistanbul%2Fmoof-istanbul-1%2F60355886%3FCID%3DUS_AFF_5600_225_5383_1%26nlp%26utm_medium%3Dafl%26,http://t.groupon.com/r?tsToken=US_AFF_0_204403_212556_0&url=http%3A%2F%2Fwww.sehirfirsati.com%2Fdeals%2Fistanbul%2Fmoof-istanbul-1%2F60355886%3FCID%3DUS_AFF_5600_225_5383_1%26nlp%26utm_medium%3Dafl%26,,,,,,,TR,TR,,,,,"1 Kişilik SEO Eğitimi","1 Kişilik SEO Eğitimi","<li>Groupon'unuz 25 Nisan'da SEO Eğitiminde ya da 26 Nisan Google Adwords eğitiminde geçerlidir.</li>
<li>Eğitimler Taksim CVK Hotel'de gerçekleşecektir.</li>
<li>Detaylar ve diğer sorularınız için: 0212 227 66 63 veya <a href=""merhaba@moof.com.","<li>Groupon'unuz 25 Nisan'da SEO Eğitiminde ya da 26 Nisan Google Adwords eğitiminde geçerlidir.</li>
<li>Eğitimler Taksim CVK Hotel'de gerçekleşecektir.</li>
<li>Detaylar ve diğer sorularınız için: 0212 227 66 63 veya <a href=""merhaba@moof.com.","2015-04-25 22:59:59","2015-04-25 22:59:59","2015-04-05 23:00:00","2015-04-05 23:00:00",http://static.tr.groupon-content.net/05/60/1428089556005.jpg,http://static.tr.groupon-content.net/05/60/1428089556005.jpg,http://static.tr.groupon-content.net/19/60/1428089556019.jpg,http://static.tr.groupon-content.net/19/60/1428089556019.jpg,http://static.tr.groupon-content.net/05/60/1428089556005.jpg,http://static.tr.groupon-content.net/05/60/1428089556005.jpg,,,"MooF İstanbul","MooF İstanbul",0,0,Local,Local,0,0,,,,,,,2,2,35000.00,35000.00,9900.00,9900.00,0.00,0.00,72.00,72.00,TRY,TRY,TR,TR,istanbul,istanbul,1,1,"2015-04-19 19:54:36","2015-04-19 19:54:36"
190,190,23010,23010,-2086295414,-2086295414,"Nihayet Bitti Oyununa Bilet","Nihayet Bitti Oyununa Bilet",http://t.groupon.com/r?tsToken=US_AFF_0_204403_212556_0&url=http%3A%2F%2Fwww.sehirfirsati.com%2Fdeals%2Fistanbul%2Fgl-duru-tiyatro-ve-film-yapim-dekorasyon-ltd-sti-2%2F61188234%3FCID%3DUS_AFF_5600_225,http://t.groupon.com/r?tsToken=US_AFF_0_204403_212556_0&url=http%3A%2F%2Fwww.sehirfirsati.com%2Fdeals%2Fistanbul%2Fgl-duru-tiyatro-ve-film-yapim-dekorasyon-ltd-sti-2%2F61188234%3FCID%3DUS_AFF_5600_225,,,,,,,TR,TR,,,,,"25 Nisan Cumartesi 20:30'da Duru Tiyatro'da Sahnelenecek Nihayet Bitti Oyununa Bilet - 1 Kişi","25 Nisan Cumartesi 20:30'da Duru Tiyatro'da Sahnelenecek Nihayet Bitti Oyununa Bilet - 1 Kişi","<li>Groupon 25 Nisan Cumartesi 20:30'da Duru Tiyatro'da sahnelenecek oyunda geçerlidir.</li>
<li>Biletlerinizi etkinlik günü gişeden Groupon çıktınızla birlikte temin edebilirsiniz.</li>
<li>Groupon'unuz hakkındaki diğer koşullara <a href=""http","<li>Groupon 25 Nisan Cumartesi 20:30'da Duru Tiyatro'da sahnelenecek oyunda geçerlidir.</li>
<li>Biletlerinizi etkinlik günü gişeden Groupon çıktınızla birlikte temin edebilirsiniz.</li>
<li>Groupon'unuz hakkındaki diğer koşullara <a href=""http","2015-04-25 22:59:59","2015-04-25 22:59:59","2015-04-16 23:00:00","2015-04-16 23:00:00",http://static.tr.groupon-content.net/74/07/1429186190774.jpg,http://static.tr.groupon-content.net/74/07/1429186190774.jpg,http://static.tr.groupon-content.net/14/08/1429186190814.jpg,http://static.tr.groupon-content.net/14/08/1429186190814.jpg,http://static.tr.groupon-content.net/74/07/1429186190774.jpg,http://static.tr.groupon-content.net/74/07/1429186190774.jpg,,,"Duru Tiyatro","Duru Tiyatro",0,0,Local,Local,0,0,,,,,,,0,0,4000.00,4000.00,2500.00,2500.00,0.00,0.00,38.00,38.00,TRY,TRY,TR,TR,istanbul,istanbul,1,1,"2015-04-19 19:54:36","2015-04-19 19:54:36"
210,210,288772,288772,-2087252127,-2087252127,"Zübük Oyununa Bilet","Zübük Oyununa Bilet",http://t.groupon.com/r?tsToken=US_AFF_0_204403_212556_0&url=http%3A%2F%2Fwww.sehirfirsati.com%2Fdeals%2Fistanbul%2Fgl-sanart-yapim-70%2F60231521%3FCID%3DUS_AFF_5600_225_5383_1%26nlp%26utm_medium%3Dafl,http://t.groupon.com/r?tsToken=US_AFF_0_204403_212556_0&url=http%3A%2F%2Fwww.sehirfirsati.com%2Fdeals%2Fistanbul%2Fgl-sanart-yapim-70%2F60231521%3FCID%3DUS_AFF_5600_225_5383_1%26nlp%26utm_medium%3Dafl,,,,,,,TR,TR,,,,,"25 Nisan'da MOİ Sahne'de Zübük Oyununa Biletiniz","25 Nisan'da MOİ Sahne'de Zübük Oyununa Biletiniz","<li>Groupon'unuz 25 Nisan 20:30'da MOİ Sahne'de yapılacak etkinlik için geçerlidir.</li>
<li>Groupon'larınızı etkinlik günü gişeden bilete dönüştürebilirsiniz.</li>
<li>Groupon'lar iptal ya da iade edilemez.</li>
<li>Groupon'unuz hakkındaki","<li>Groupon'unuz 25 Nisan 20:30'da MOİ Sahne'de yapılacak etkinlik için geçerlidir.</li>
<li>Groupon'larınızı etkinlik günü gişeden bilete dönüştürebilirsiniz.</li>
<li>Groupon'lar iptal ya da iade edilemez.</li>
<li>Groupon'unuz hakkındaki","2015-04-25 22:59:59","2015-04-25 22:59:59","2015-04-02 23:00:00","2015-04-02 23:00:00",http://static.tr.groupon-content.net/53/82/1427972608253.jpg,http://static.tr.groupon-content.net/53/82/1427972608253.jpg,http://static.tr.groupon-content.net/73/82/1427972608273.jpg,http://static.tr.groupon-content.net/73/82/1427972608273.jpg,http://static.tr.groupon-content.net/53/82/1427972608253.jpg,http://static.tr.groupon-content.net/53/82/1427972608253.jpg,,,"Sanart Yapım","Sanart Yapım",0,0,Local,Local,0,0,,,,,,,0,0,6000.00,6000.00,3000.00,3000.00,0.00,0.00,50.00,50.00,TRY,TRY,TR,TR,istanbul,istanbul,1,1,"2015-04-19 19:54:36","2015-04-19 19:54:36"
2430,2430,2191179,2191179,13380345,13380345,"The Pink Magnolia Restaurant and Lounge","The Pink Magnolia Restaurant and Lounge",http://www.8coupons.com/apiout/showdeal/deal/13380345/1917/aff,http://www.8coupons.com/apiout/showdeal/deal/13380345/1917/aff,"The Pink Magnolia Restaurant and Lounge","The Pink Magnolia Restaurant and Lounge","240 B Main St.","240 B Main St.",Racine,Racine,,,53403,53403,,,"$10 Gift Certificate for $4.00","$10 Gift Certificate for $4.00","Welcome to The Pink Magnolia Restaurant and Lounge. We specialize in delicious and reasonably priced cuisine, including our house specialties and other customer favorites.","Welcome to The Pink Magnolia Restaurant and Lounge. We specialize in delicious and reasonably priced cuisine, including our house specialties and other customer favorites.","2015-04-25 00:00:00","2015-04-25 00:00:00","2015-04-21 01:40:18","2015-04-21 01:40:18",http://www.8coupons.com/image/deal/13380345/featured,http://www.8coupons.com/image/deal/13380345/featured,http://www.8coupons.com/image/deal/13380345,http://www.8coupons.com/image/deal/13380345,,,,,Restaurant.com,Restaurant.com,0,0,Restaurants,Restaurants,0,0,,,42.73090000,42.73090000,-87.78390000,-87.78390000,,,10.00,10.00,4.00,4.00,6.00,6.00,60.00,60.00,USD,USD,US,US,,,2,2,"2015-04-21 00:00:04","2015-04-21 00:00:04"
2444,2444,washington-d-c-beerathon,washington-d-c-beerathon,12972094,12972094,"Margarita March-Tasting Tour","Margarita March-Tasting Tour",http://tracking.groupon.com/r?tsToken=US_AFF_0_204403_212556_0&url=http%3A%2F%2Fwww.groupon.com%2Fdeals%2Fbeerathon-5-10%3Fz%3Dskip%26utm_medium%3Dafl%26utm_source%3DGPN%26utm_campaign%3D204403%26medi,http://tracking.groupon.com/r?tsToken=US_AFF_0_204403_212556_0&url=http%3A%2F%2Fwww.groupon.com%2Fdeals%2Fbeerathon-5-10%3Fz%3Dskip%26utm_medium%3Dafl%26utm_source%3DGPN%26utm_campaign%3D204403%26medi,"Cavanaugh's River Deck","Cavanaugh's River Deck","417 N Columbus Blvd","417 N Columbus Blvd",Philadelphia,Philadelphia,central-jersey,central-jersey,19123,19123,,,"Admission for One to the Philidelphia Margarita March on April 25th","Admission for One to the Philidelphia Margarita March on April 25th","Limit 10 per person, may buy 10 additional as gifts. Valid only for option listed. Must be 21 or older. Valid only for the Philadelphia Margarita March event listed. Must arrive and check in from 12pm-3pm on day of event. Must use promotional value in 1 v","Limit 10 per person, may buy 10 additional as gifts. Valid only for option listed. Must be 21 or older. Valid only for the Philadelphia Margarita March event listed. Must arrive and check in from 12pm-3pm on day of event. Must use promotional value in 1 v","2015-04-25 21:59:59","2015-04-25 21:59:59","2015-03-19 22:00:00","2015-03-19 22:00:00",https://img.grouponcdn.com/iam/se19f7MSbikuX1MWLQSL/JY-2048x1229/v1/t440x300.jpg,https://img.grouponcdn.com/iam/se19f7MSbikuX1MWLQSL/JY-2048x1229/v1/t440x300.jpg,https://img.grouponcdn.com/iam/se19f7MSbikuX1MWLQSL/JY-2048x1229/v1/t50x50.jpg,https://img.grouponcdn.com/iam/se19f7MSbikuX1MWLQSL/JY-2048x1229/v1/t50x50.jpg,https://img.grouponcdn.com/iam/se19f7MSbikuX1MWLQSL/JY-2048x1229/v1/t440x300.jpg,https://img.grouponcdn.com/iam/se19f7MSbikuX1MWLQSL/JY-2048x1229/v1/t440x300.jpg,,,"Margarita March","Margarita March",0,0,"Arts and Entertainment","Arts and Entertainment",0,0,,,39.95783060,39.95783060,-75.13771090,-75.13771090,940,940,5902.00,5902.00,2900.00,2900.00,0.00,0.00,51.00,51.00,USD,USD,US,US,,,1,1,"2015-04-21 00:00:10","2015-04-21 00:00:10"
2655,2655,354891,354891,-2086513256,-2086513256,"Férias em Aracati/CE","Férias em Aracati/CE",http://t.groupon.com/r?tsToken=US_AFF_0_204403_212556_0&url=http%3A%2F%2Fwww.groupon.com.br%2Fofertas%2Ffortaleza%2Fga-complexo-mirante-das-gamboas-5%2F60970385%3FCID%3DUS_AFF_5600_225_5383_1%26nlp%26,http://t.groupon.com/r?tsToken=US_AFF_0_204403_212556_0&url=http%3A%2F%2Fwww.groupon.com.br%2Fofertas%2Ffortaleza%2Fga-complexo-mirante-das-gamboas-5%2F60970385%3FCID%3DUS_AFF_5600_225_5383_1%26nlp%26,"Complexo Mirante das Gamboas","Complexo Mirante das Gamboas","Estrada Do Cumbe - Km 0 Aracati 62800000","Estrada Do Cumbe - Km 0 Aracati 62800000",Aracati,Aracati,BR,BR,62800000,62800000,,,"Utilize em março/2015: 2 noite para 2 (check-in 6ª) Apartamento","Utilize em março/2015: 2 noite para 2 (check-in 6ª) Apartamento","<strong>Reserva:</strong> conforme disponibilidade do local, todos os dias, 24h, pelos telefones (88) 3421-1766/ (88) 3421-1202/ (88) 3446-2556/ (88) 3421-1202/ (85) 8572-5965/ (88) 9312-5819/ (88) 9746-5349 / hotelmirantedasgamboas@gmail.com em até 15 d","<strong>Reserva:</strong> conforme disponibilidade do local, todos os dias, 24h, pelos telefones (88) 3421-1766/ (88) 3421-1202/ (88) 3446-2556/ (88) 3421-1202/ (85) 8572-5965/ (88) 9312-5819/ (88) 9746-5349 / hotelmirantedasgamboas@gmail.com em até 15 d","2015-04-25 20:59:59","2015-04-25 20:59:59","2015-04-20 21:00:00","2015-04-20 21:00:00",http://static.br.groupon-content.net/76/91/1421932079176.jpg,http://static.br.groupon-content.net/76/91/1421932079176.jpg,http://static.br.groupon-content.net/94/91/1421932079194.jpg,http://static.br.groupon-content.net/94/91/1421932079194.jpg,,,http://static.br.groupon-content.net/76/91/1421932079176.jpg,http://static.br.groupon-content.net/76/91/1421932079176.jpg,"Complexo Mirante das Gamboas","Complexo Mirante das Gamboas",0,0,Travel,Travel,0,0,,,-4.61479600,-4.61479600,-37.66225400,-37.66225400,5,5,44400.00,44400.00,16900.00,16900.00,0.00,0.00,62.00,62.00,BRL,BRL,BR,BR,fortaleza,fortaleza,1,1,"2015-04-21 00:00:13","2015-04-21 00:00:13"
4866,4866,dallas-pops,dallas-pops,13288389,13288389,"Gala of the Royal Horses","Gala of the Royal Horses",http://tracking.groupon.com/r?tsToken=US_AFF_0_204403_212556_0&url=http%3A%2F%2Fwww.groupon.com%2Fdeals%2Fgl-gala-of-the-royal-horses-at-the-broadmoor-world-arena%3Fz%3Dskip%26utm_medium%3Dafl%26utm_s,http://tracking.groupon.com/r?tsToken=US_AFF_0_204403_212556_0&url=http%3A%2F%2Fwww.groupon.com%2Fdeals%2Fgl-gala-of-the-royal-horses-at-the-broadmoor-world-arena%3Fz%3Dskip%26utm_medium%3Dafl%26utm_s,"The Broadmoor World Arena","The Broadmoor World Arena","3185 Venetucci Blvd.","3185 Venetucci Blvd.","Colorado Springs","Colorado Springs",colorado-springs,colorado-springs,80906,80906,,,"April 25, 2015 at 7:30pm, Upper Bowl 211-214: One Ticket to Gala of the Royal Horses","April 25, 2015 at 7:30pm, Upper Bowl 211-214: One Ticket to Gala of the Royal Horses","Limit 8 per person. Valid only for option purchased. Redeem on 4/25 for a ticket at venue box office. <b>Must show valid ID matching name on Groupon at Broadmoor World Arena.</b> Refundable only on day of purchase. Must redeem together to sit together. <a","Limit 8 per person. Valid only for option purchased. Redeem on 4/25 for a ticket at venue box office. <b>Must show valid ID matching name on Groupon at Broadmoor World Arena.</b> Refundable only on day of purchase. Must redeem together to sit together. <a","2015-04-25 23:59:59","2015-04-25 23:59:59","2015-04-18 00:00:00","2015-04-18 00:00:00",https://img.grouponcdn.com/deal/vwhZLAmCBKspciXSSQStxk/Qn-700x420-700x420/v1/t440x300.jpg,https://img.grouponcdn.com/deal/vwhZLAmCBKspciXSSQStxk/Qn-700x420-700x420/v1/t440x300.jpg,https://img.grouponcdn.com/deal/vwhZLAmCBKspciXSSQStxk/Qn-700x420-700x420/v1/t50x50.jpg,https://img.grouponcdn.com/deal/vwhZLAmCBKspciXSSQStxk/Qn-700x420-700x420/v1/t50x50.jpg,https://img.grouponcdn.com/deal/vwhZLAmCBKspciXSSQStxk/Qn-700x420-700x420/v1/t440x300.jpg,https://img.grouponcdn.com/deal/vwhZLAmCBKspciXSSQStxk/Qn-700x420-700x420/v1/t440x300.jpg,,,"Gala of The Royal Horses ","Gala of The Royal Horses ",0,0,"Arts and Entertainment","Arts and Entertainment",0,0,,,38.78828170,38.78828170,-99.99999999,-99.99999999,110,110,2300.00,2300.00,1400.00,1400.00,0.00,0.00,39.00,39.00,USD,USD,US,US,,,1,1,"2015-04-21 00:04:57","2015-04-21 00:04:57"
7460,7460,3070250,3070250,12677237,12677237,"Chesapeake Paintball","Chesapeake Paintball",http://www.8coupons.com/apiout/showdeal/deal/12677237/1917/aff,http://www.8coupons.com/apiout/showdeal/deal/12677237/1917/aff,"Chesapeake Paintball","Chesapeake Paintball","3064 Yadkin Rd","3064 Yadkin Rd",Chesapeake,Chesapeake,,,23323,23323,,,"$19 for $44.95 - All-Day Paintball Package","$19 for $44.95 - All-Day Paintball Package","SplatBrothers Paintball is all about fast-paced paintball action. They've got a huge facility, the latest equipment, challenging fields, and a team of knowledgeable pros dedicated to making sure that you have a great time.      $19 ($44.95 value) for an a","SplatBrothers Paintball is all about fast-paced paintball action. They've got a huge facility, the latest equipment, challenging fields, and a team of knowledgeable pros dedicated to making sure that you have a great time.      $19 ($44.95 value) for an a","2015-04-25 00:00:00","2015-04-25 00:00:00","2015-04-23 01:57:19","2015-04-23 01:57:19",http://g-ecx.images-amazon.com/images/G/01/ember/deals/393eebd538c0aea62f02f2cfbf7b51a7e347cfceb651d04826a3ae8ab2a130,http://g-ecx.images-amazon.com/images/G/01/ember/deals/393eebd538c0aea62f02f2cfbf7b51a7e347cfceb651d04826a3ae8ab2a130,http://www.8coupons.com/image/deal/12677237,http://www.8coupons.com/image/deal/12677237,,,,,"Amazon Local","Amazon Local",0,0,Entertainment,Entertainment,0,0,,,36.76450000,36.76450000,-76.35890000,-76.35890000,,,45.00,45.00,19.00,19.00,26.00,26.00,58.00,58.00,USD,USD,US,US,,,2,2,"2015-04-23 00:00:04","2015-04-23 00:00:04"
8184,8184,christopher-titus-scarred-for-life,christopher-titus-scarred-for-life,13317520,13317520,"Standup Show: Christopher Titus","Standup Show: Christopher Titus",http://tracking.groupon.com/r?tsToken=US_AFF_0_204403_212556_0&url=http%3A%2F%2Fwww.groupon.com%2Fdeals%2Fgl-christopher-titus-scarred-for-life-18%3Fz%3Dskip%26utm_medium%3Dafl%26utm_source%3DGPN%26ut,http://tracking.groupon.com/r?tsToken=US_AFF_0_204403_212556_0&url=http%3A%2F%2Fwww.groupon.com%2Fdeals%2Fgl-christopher-titus-scarred-for-life-18%3Fz%3Dskip%26utm_medium%3Dafl%26utm_source%3DGPN%26ut,"U.S. Cellular Stage at the Bijou Theatre","U.S. Cellular Stage at the Bijou Theatre","803 S Gay St.","803 S Gay St.",Knoxville,Knoxville,knoxville,knoxville,37902,37902,,,"April 25, 2015 at 8 p.m.: One Ticket to Christopher Titus, General Admission","April 25, 2015 at 8 p.m.: One Ticket to Christopher Titus, General Admission","Limit 8 per person. Redeem on 4/25 for a ticket at venue box office. <b>Must show valid ID matching name on Groupon at U.S. Cellular Stage at the Bijou Theatre.</b> Refundable only on day of purchase. <a href=""http://gr.pn/MrwmAQ"">Discount reflects Ticket","Limit 8 per person. Redeem on 4/25 for a ticket at venue box office. <b>Must show valid ID matching name on Groupon at U.S. Cellular Stage at the Bijou Theatre.</b> Refundable only on day of purchase. <a href=""http://gr.pn/MrwmAQ"">Discount reflects Ticket","2015-04-25 21:59:59","2015-04-25 21:59:59","2015-04-17 22:00:00","2015-04-17 22:00:00",https://img.grouponcdn.com/deal/dhXsBTBwxZ7xqzcHB1u89i/Te-2048x1229-2048x1229/v1/t440x300.jpg,https://img.grouponcdn.com/deal/dhXsBTBwxZ7xqzcHB1u89i/Te-2048x1229-2048x1229/v1/t440x300.jpg,https://img.grouponcdn.com/deal/dhXsBTBwxZ7xqzcHB1u89i/Te-2048x1229-2048x1229/v1/t50x50.jpg,https://img.grouponcdn.com/deal/dhXsBTBwxZ7xqzcHB1u89i/Te-2048x1229-2048x1229/v1/t50x50.jpg,https://img.grouponcdn.com/deal/dhXsBTBwxZ7xqzcHB1u89i/Te-2048x1229-2048x1229/v1/t440x300.jpg,https://img.grouponcdn.com/deal/dhXsBTBwxZ7xqzcHB1u89i/Te-2048x1229-2048x1229/v1/t440x300.jpg,,,"Christopher Titus: ""Born With a Defect""","Christopher Titus: ""Born With a Defect""",0,0,Tickets,Tickets,0,0,,,35.96234780,35.96234780,-83.91709610,-83.91709610,60,60,3170.00,3170.00,2000.00,2000.00,0.00,0.00,37.00,37.00,USD,USD,US,US,,,1,1,"2015-04-23 00:01:23","2015-04-23 00:01:23"
8432,8432,298673,298673,-2088095541,-2088095541,"Divano letto Cedro","Divano letto Cedro",http://t.groupon.com/r?tsToken=US_AFF_0_204403_212556_0&url=http%3A%2F%2Fwww.groupon.it%2Fdeals%2Fdeal-nazionale%2Fgg-13casa-com-145%2F59388106%3FCID%3DUS_AFF_5600_225_5383_1%26nlp%26utm_medium%3Dafl%,http://t.groupon.com/r?tsToken=US_AFF_0_204403_212556_0&url=http%3A%2F%2Fwww.groupon.it%2Fdeals%2Fdeal-nazionale%2Fgg-13casa-com-145%2F59388106%3FCID%3DUS_AFF_5600_225_5383_1%26nlp%26utm_medium%3Dafl%,,,,,,,IT,IT,,,,,"Divano letto Cedro 2 posti beige","Divano letto Cedro 2 posti beige","Consegna gratuita prevista entro 15 giorni lavorativi dall'acquisto<br /><br />Garanzia 24 mesi (UE)<br />Prezzo originale verificato il 18.03.2015 <A HREF=""http://www.grouponitalia.com/condizioni.html#ancora"" style=""font-size:10px"">(info)</a><br />Indiri","Consegna gratuita prevista entro 15 giorni lavorativi dall'acquisto<br /><br />Garanzia 24 mesi (UE)<br />Prezzo originale verificato il 18.03.2015 <A HREF=""http://www.grouponitalia.com/condizioni.html#ancora"" style=""font-size:10px"">(info)</a><br />Indiri","2015-04-25 15:59:59","2015-04-25 15:59:59","2015-03-28 16:00:00","2015-03-28 16:00:00",http://static.it.groupon-content.net/88/62/1427194796288.jpg,http://static.it.groupon-content.net/88/62/1427194796288.jpg,http://static.it.groupon-content.net/12/63/1427194796312.jpg,http://static.it.groupon-content.net/12/63/1427194796312.jpg,,,http://static.it.groupon-content.net/88/62/1427194796288.jpg,http://static.it.groupon-content.net/88/62/1427194796288.jpg,"13 casa","13 casa",0,0,Shopping,Shopping,0,0,,,,,,,1,1,84000.00,84000.00,19990.00,19990.00,0.00,0.00,76.00,76.00,EUR,EUR,IT,IT,deal-nazionale,deal-nazionale,1,1,"2015-04-23 00:02:06","2015-04-23 00:02:06"
8846,8846,298673,298673,-2088159755,-2088159755,"Porta TV in legno","Porta TV in legno",http://t.groupon.com/r?tsToken=US_AFF_0_204403_212556_0&url=http%3A%2F%2Fwww.groupon.it%2Fdeals%2Fdeal-nazionale%2Fgg-13casa-com-156%2F59323892%3FCID%3DUS_AFF_5600_225_5383_1%26nlp%26utm_medium%3Dafl%,http://t.groupon.com/r?tsToken=US_AFF_0_204403_212556_0&url=http%3A%2F%2Fwww.groupon.it%2Fdeals%2Fdeal-nazionale%2Fgg-13casa-com-156%2F59323892%3FCID%3DUS_AFF_5600_225_5383_1%26nlp%26utm_medium%3Dafl%,,,,,,,IT,IT,,,,,"TIVI 5 TV STAND F00360501020","TIVI 5 TV STAND F00360501020","Consegna gratuita prevista entro 15 giorni lavorativi dall'acquisto<br />Garanzia 24 mesi (UE)<br />Prezzo originale verificato il 11.03.2015 <A HREF=""http://grouponitalia.com/verifica-prezzi-shopping/1.html"" style=""font-size:10px""> (info)</a><br />Indiri","Consegna gratuita prevista entro 15 giorni lavorativi dall'acquisto<br />Garanzia 24 mesi (UE)<br />Prezzo originale verificato il 11.03.2015 <A HREF=""http://grouponitalia.com/verifica-prezzi-shopping/1.html"" style=""font-size:10px""> (info)</a><br />Indiri","2015-04-25 15:59:59","2015-04-25 15:59:59","2015-03-31 16:00:00","2015-03-31 16:00:00",http://static.it.groupon-content.net/92/44/1427124694492.jpg,http://static.it.groupon-content.net/92/44/1427124694492.jpg,http://static.it.groupon-content.net/47/46/1427124694647.jpg,http://static.it.groupon-content.net/47/46/1427124694647.jpg,,,http://static.it.groupon-content.net/92/44/1427124694492.jpg,http://static.it.groupon-content.net/92/44/1427124694492.jpg,"13 casa","13 casa",0,0,Shopping,Shopping,0,0,,,,,,,3,3,6300.00,6300.00,3990.00,3990.00,0.00,0.00,37.00,37.00,EUR,EUR,IT,IT,deal-nazionale,deal-nazionale,1,1,"2015-04-23 00:03:07","2015-04-23 00:03:07"
8928,8928,fight-republic,fight-republic,13321438,13321438,"MMA Event","MMA Event",http://tracking.groupon.com/r?tsToken=US_AFF_0_204403_212556_0&url=http%3A%2F%2Fwww.groupon.com%2Fdeals%2Fgl-world-fighting-championships%3Fz%3Dskip%26utm_medium%3Dafl%26utm_source%3DGPN%26utm_campaig,http://tracking.groupon.com/r?tsToken=US_AFF_0_204403_212556_0&url=http%3A%2F%2Fwww.groupon.com%2Fdeals%2Fgl-world-fighting-championships%3Fz%3Dskip%26utm_medium%3Dafl%26utm_source%3DGPN%26utm_campaig,"Sunset Station","Sunset Station","1301 W Sunset Rd.","1301 W Sunset Rd.",Henderson,Henderson,las-vegas,las-vegas,89014,89014,,,"April 24, 2015 at 8PM: One Premium Ticket to WFC 38","April 24, 2015 at 8PM: One Premium Ticket to WFC 38","Limit 8 per person. Valid only for option purchased. Redeem starting 4/24 for a ticket at venue box office. <b>Must show valid ID matching name on Groupon at Sunset Station.</b> Refundable only on day of purchase. Must purchase together to sit together. <","Limit 8 per person. Valid only for option purchased. Redeem starting 4/24 for a ticket at venue box office. <b>Must show valid ID matching name on Groupon at Sunset Station.</b> Refundable only on day of purchase. Must purchase together to sit together. <","2015-04-25 00:59:59","2015-04-25 00:59:59","2015-04-22 01:00:00","2015-04-22 01:00:00",https://img.grouponcdn.com/deal/m11eX7Mzn5Jf52GD5HPM/Zo-700x420/v1/t440x300.jpg,https://img.grouponcdn.com/deal/m11eX7Mzn5Jf52GD5HPM/Zo-700x420/v1/t440x300.jpg,https://img.grouponcdn.com/deal/m11eX7Mzn5Jf52GD5HPM/Zo-700x420/v1/t50x50.jpg,https://img.grouponcdn.com/deal/m11eX7Mzn5Jf52GD5HPM/Zo-700x420/v1/t50x50.jpg,https://img.grouponcdn.com/deal/m11eX7Mzn5Jf52GD5HPM/Zo-700x420/v1/t440x300.jpg,https://img.grouponcdn.com/deal/m11eX7Mzn5Jf52GD5HPM/Zo-700x420/v1/t440x300.jpg,,,"WFC 38","WFC 38",0,0,"Arts and Entertainment","Arts and Entertainment",0,0,,,36.06127660,36.06127660,-99.99999999,-99.99999999,10,10,4000.00,4000.00,2500.00,2500.00,0.00,0.00,38.00,38.00,USD,USD,US,US,,,1,1,"2015-04-23 00:03:31","2015-04-23 00:03:31"
9255,9255,kentucky-reining-cup,kentucky-reining-cup,13321601,13321601,"Reining World Championships","Reining World Championships",http://tracking.groupon.com/r?tsToken=US_AFF_0_204403_212556_0&url=http%3A%2F%2Fwww.groupon.com%2Fdeals%2Fgl-kentucky-reining-cup-6%3Fz%3Dskip%26utm_medium%3Dafl%26utm_source%3DGPN%26utm_campaign%3D20,http://tracking.groupon.com/r?tsToken=US_AFF_0_204403_212556_0&url=http%3A%2F%2Fwww.groupon.com%2Fdeals%2Fgl-kentucky-reining-cup-6%3Fz%3Dskip%26utm_medium%3Dafl%26utm_source%3DGPN%26utm_campaign%3D20,"Alltech Arena: Kentucky Horse Park","Alltech Arena: Kentucky Horse Park","4089 Iron Works Parkway","4089 Iron Works Parkway",Lexington,Lexington,lexington,lexington,40511,40511,,,"April 25, 2015 at 5:30PM: Two General Admission Tickets to Kentucky Reining Cup World Championship Freestyle Reining","April 25, 2015 at 5:30PM: Two General Admission Tickets to Kentucky Reining Cup World Championship Freestyle Reining","Limit 8 per person. Redeem starting 4/25 for a ticket at venue box office. <b>Must show valid ID matching name on Groupon at Alltech Arena Kentucky Horse Park .</b> Refundable only on day of purchase. <a href=""http://gr.pn/MrwmAQ"">Discount reflects HorseP","Limit 8 per person. Redeem starting 4/25 for a ticket at venue box office. <b>Must show valid ID matching name on Groupon at Alltech Arena Kentucky Horse Park .</b> Refundable only on day of purchase. <a href=""http://gr.pn/MrwmAQ"">Discount reflects HorseP","2015-04-25 21:59:59","2015-04-25 21:59:59","2015-04-18 22:00:00","2015-04-18 22:00:00",https://img.grouponcdn.com/deal/krFwcydu734dXEeykSxL/hz-700x420/v1/t440x300.jpg,https://img.grouponcdn.com/deal/krFwcydu734dXEeykSxL/hz-700x420/v1/t440x300.jpg,https://img.grouponcdn.com/deal/krFwcydu734dXEeykSxL/hz-700x420/v1/t50x50.jpg,https://img.grouponcdn.com/deal/krFwcydu734dXEeykSxL/hz-700x420/v1/t50x50.jpg,https://img.grouponcdn.com/deal/krFwcydu734dXEeykSxL/hz-700x420/v1/t440x300.jpg,https://img.grouponcdn.com/deal/krFwcydu734dXEeykSxL/hz-700x420/v1/t440x300.jpg,,,"2015 Kentucky Reining Cup","2015 Kentucky Reining Cup",0,0,Tickets,Tickets,0,0,,,38.15157630,38.15157630,-84.51773590,-84.51773590,40,40,7000.00,7000.00,3500.00,3500.00,0.00,0.00,50.00,50.00,USD,USD,US,US,,,1,1,"2015-04-23 00:04:12","2015-04-23 00:04:12"
11204,11204,417299,417299,-2088084593,-2088084593,"49cc Mini Motocrossfiets","49cc Mini Motocrossfiets",http://t.groupon.com/r?tsToken=US_AFF_0_204403_212556_0&url=http%3A%2F%2Fwww.groupon.nl%2Fdeals%2Flandelijke-deal%2Fgg-giant-red-7-1-2-merchandising-nl%2F59399053%3FCID%3DUS_AFF_5600_225_5383_1%26nlp%,http://t.groupon.com/r?tsToken=US_AFF_0_204403_212556_0&url=http%3A%2F%2Fwww.groupon.nl%2Fdeals%2Flandelijke-deal%2Fgg-giant-red-7-1-2-merchandising-nl%2F59399053%3FCID%3DUS_AFF_5600_225_5383_1%26nlp%,,,,,,,NL,NL,,,,,"49cc Off-Road Mini Motocrossfiets - Oranje","49cc Off-Road Mini Motocrossfiets - Oranje","<strong>Levering:</strong> binnen 2 weken na aankoop. Enkel in Nederland.<br /><strong> Inclusief verzendkosten. </strong><br />De <a title=""Verkoopvoorwaarden Groupon Netherlands BV"" href=""http://www.groupon.nl/terms_and_conditions"" target=""_blank"">Verko","<strong>Levering:</strong> binnen 2 weken na aankoop. Enkel in Nederland.<br /><strong> Inclusief verzendkosten. </strong><br />De <a title=""Verkoopvoorwaarden Groupon Netherlands BV"" href=""http://www.groupon.nl/terms_and_conditions"" target=""_blank"">Verko","2015-04-25 15:59:59","2015-04-25 15:59:59","2015-03-31 16:00:00","2015-03-31 16:00:00",http://static.nl.groupon-content.net/83/22/1427197902283.jpg,http://static.nl.groupon-content.net/83/22/1427197902283.jpg,http://static.nl.groupon-content.net/03/23/1427197902303.jpg,http://static.nl.groupon-content.net/03/23/1427197902303.jpg,,,http://static.nl.groupon-content.net/83/22/1427197902283.jpg,http://static.nl.groupon-content.net/83/22/1427197902283.jpg,"Giant Red 7","Giant Red 7",0,0,Shopping,Shopping,0,0,,,,,,,0,0,41100.00,41100.00,19999.00,19999.00,0.00,0.00,51.00,51.00,EUR,EUR,NL,NL,landelijke-deal,landelijke-deal,1,1,"2015-04-23 00:09:26","2015-04-23 00:09:26"
11669,11669,280443,280443,-2088202117,-2088202117,"Garcinia Cambogia Plus kapsler","Garcinia Cambogia Plus kapsler",http://t.groupon.com/r?tsToken=US_AFF_0_204403_212556_0&url=http%3A%2F%2Fwww.groupon.no%2Fdeals%2Fonline-store%2Fgg-chemist-4-u-4-271-390%2F59281530%3FCID%3DUS_AFF_5600_225_5383_1%26nlp%26utm_medium%3,http://t.groupon.com/r?tsToken=US_AFF_0_204403_212556_0&url=http%3A%2F%2Fwww.groupon.no%2Fdeals%2Fonline-store%2Fgg-chemist-4-u-4-271-390%2F59281530%3FCID%3DUS_AFF_5600_225_5383_1%26nlp%26utm_medium%3,,,,,,,NO,NO,,,,,"60 kapsler Garcinia Cambogia Plus 500 mg","60 kapsler Garcinia Cambogia Plus 500 mg","<strong> Din ordre: </strong> Etter kjøpet vil du bli bedt om å oppgi leveringsadresse (denne kan ikke endres), deretter vil ordren gjennomføres via Automatisk Forsendelse. Kjøp utført via mobilappen sendes til din Grouponregistrerte adresse.<br /> <","<strong> Din ordre: </strong> Etter kjøpet vil du bli bedt om å oppgi leveringsadresse (denne kan ikke endres), deretter vil ordren gjennomføres via Automatisk Forsendelse. Kjøp utført via mobilappen sendes til din Grouponregistrerte adresse.<br /> <","2015-04-25 15:59:59","2015-04-25 15:59:59","2015-04-01 16:00:00","2015-04-01 16:00:00",http://static.no.groupon-content.net/77/09/1427106860977.jpg,http://static.no.groupon-content.net/77/09/1427106860977.jpg,http://static.no.groupon-content.net/95/09/1427106860995.jpg,http://static.no.groupon-content.net/95/09/1427106860995.jpg,,,http://static.no.groupon-content.net/77/09/1427106860977.jpg,http://static.no.groupon-content.net/77/09/1427106860977.jpg,"Chemist4U NO","Chemist4U NO",0,0,Shopping,Shopping,0,0,,,,,,,7,7,41000.00,41000.00,8900.00,8900.00,0.00,0.00,78.00,78.00,NOK,NOK,NO,NO,online-store,online-store,1,1,"2015-04-24 00:01:02","2015-04-24 00:01:02"
16713,16713,715894111,715894111,719179408,719179408,"Magic Baby Bullet Blender","Magic Baby Bullet Blender",http://t.groupon.com/r?tsToken=US_AFF_0_204403_212556_0&url=http%3A%2F%2Fwww.groupon.sg%2Fdeals%2Fhousehold%2Fgg-groupon-p02805817-6-13%2F719179408%3FCID%3DUS_AFF_5600_225_5383_1%26nlp%26utm_medium%3D,http://t.groupon.com/r?tsToken=US_AFF_0_204403_212556_0&url=http%3A%2F%2Fwww.groupon.sg%2Fdeals%2Fhousehold%2Fgg-groupon-p02805817-6-13%2F719179408%3FCID%3DUS_AFF_5600_225_5383_1%26nlp%26utm_medium%3D,,,,,,,SG,SG,,,,,"Courier Service: Magic Baby Bullet Baby Food Processor Blender","Courier Service: Magic Baby Bullet Baby Food Processor Blender","<h3>Delivery Info</h3>
<ul>
<li><strong>Orders will be received within 7 working days from the date of purchase</strong></li> 
<li><strong>Delivery by Courier Service</strong></li>
<li><strong>Enter home or office mailing address at payment page</strong><","<h3>Delivery Info</h3>
<ul>
<li><strong>Orders will be received within 7 working days from the date of purchase</strong></li> 
<li><strong>Delivery by Courier Service</strong></li>
<li><strong>Enter home or office mailing address at payment page</strong><","2015-04-05 09:59:59","2015-04-05 09:59:59","2014-10-28 09:00:00","2014-10-28 09:00:00",http://static.sg.groupon-content.net/41/88/1426228878841.jpg,http://static.sg.groupon-content.net/41/88/1426228878841.jpg,http://static.sg.groupon-content.net/82/91/1426228879182.jpg,http://static.sg.groupon-content.net/82/91/1426228879182.jpg,,,http://static.sg.groupon-content.net/41/88/1426228878841.jpg,http://static.sg.groupon-content.net/41/88/1426228878841.jpg,"Groupon - P02805817","Groupon - P02805817",0,0,Shopping,Shopping,0,0,,,,,,,218,218,17455.00,17455.00,4990.00,4990.00,0.00,0.00,71.00,71.00,SGD,SGD,SG,SG,household,household,1,1,"2015-04-25 12:02:42","2015-04-25 12:02:42"
16714,16714,715900385,715900385,719150625,719150625,"Triqo Unique Construction Toy","Triqo Unique Construction Toy",http://t.groupon.com/r?tsToken=US_AFF_0_204403_212556_0&url=http%3A%2F%2Fwww.groupon.sg%2Fdeals%2Fhousehold%2Fgg-groupon-001-c000001-fn-r5-wiav%2F719150624%3FCID%3DUS_AFF_5600_225_5383_1%26nlp%26utm_m,http://t.groupon.com/r?tsToken=US_AFF_0_204403_212556_0&url=http%3A%2F%2Fwww.groupon.sg%2Fdeals%2Fhousehold%2Fgg-groupon-001-c000001-fn-r5-wiav%2F719150624%3FCID%3DUS_AFF_5600_225_5383_1%26nlp%26utm_m,,,,,,,SG,SG,,,,,"Option 1 - Self-Collection: Triqo Starter Kit","Option 1 - Self-Collection: Triqo Starter Kit","<h3>Self-Collection Info</h3>
<ul>
<li><strong>Orders will be received within 7 working days from the date of purchase</strong></li>
<li>Self-collection at Groupon Redemption Centre: 100 Tras Street next to Amara Hotel, 100AM unit 04-16A (Mon to Sun 10am-","<h3>Self-Collection Info</h3>
<ul>
<li><strong>Orders will be received within 7 working days from the date of purchase</strong></li>
<li>Self-collection at Groupon Redemption Centre: 100 Tras Street next to Amara Hotel, 100AM unit 04-16A (Mon to Sun 10am-","2015-04-15 09:59:59","2015-04-15 09:59:59","2014-10-26 09:00:00","2014-10-26 09:00:00",http://static.sg.groupon-content.net/17/50/1414144765017.jpg,http://static.sg.groupon-content.net/17/50/1414144765017.jpg,http://static.sg.groupon-content.net/29/50/1414144765029.jpg,http://static.sg.groupon-content.net/29/50/1414144765029.jpg,,,http://static.sg.groupon-content.net/17/50/1414144765017.jpg,http://static.sg.groupon-content.net/17/50/1414144765017.jpg,Groupon-001C000001FnR5WIAV,Groupon-001C000001FnR5WIAV,0,0,Shopping,Shopping,0,0,,,,,,,7,7,3490.00,3490.00,2190.00,2190.00,0.00,0.00,37.00,37.00,SGD,SGD,SG,SG,household,household,1,1,"2015-04-25 12:02:42","2015-04-25 12:02:42"
16715,16715,418749,418749,-2088101900,-2088101900,"Costa Brava 4* Todo Incluido","Costa Brava 4* Todo Incluido",http://t.groupon.com/r?tsToken=US_AFF_0_204403_212556_0&url=http%3A%2F%2Fwww.groupon.es%2Fdeals%2Fviajes-y-hoteles%2Fga-h-top-royal-sun%2F59381747%3FCID%3DUS_AFF_5600_225_5383_1%26nlp%26utm_medium%3Da,http://t.groupon.com/r?tsToken=US_AFF_0_204403_212556_0&url=http%3A%2F%2Fwww.groupon.es%2Fdeals%2Fviajes-y-hoteles%2Fga-h-top-royal-sun%2F59381747%3FCID%3DUS_AFF_5600_225_5383_1%26nlp%26utm_medium%3Da,"H Top Royal Sun","H Top Royal Sun","Passeig Maritim, s/n Santa Susanna 08398","Passeig Maritim, s/n Santa Susanna 08398","Santa Susanna","Santa Susanna",ES,ES,08398,08398,,,"Del 28/03 al 1/04: 5 noches - 2 pers o 2 pers y 1 niño - todo incluido premium","Del 28/03 al 1/04: 5 noches - 2 pers o 2 pers y 1 niño - todo incluido premium","<strong> Validez</strong>
Válido del 28 de marzo al 31 de octubre de 2015. Válido para llegadas en los días seleccionados y especificados en el cupón. 
Precio para 2 personas o 2 personas y 1 o 2 niños, según opción.

<strong> Reserva</strong>
Para","<strong> Validez</strong>
Válido del 28 de marzo al 31 de octubre de 2015. Válido para llegadas en los días seleccionados y especificados en el cupón. 
Precio para 2 personas o 2 personas y 1 o 2 niños, según opción.

<strong> Reserva</strong>
Para","2015-04-04 15:59:59","2015-04-04 15:59:59","2015-03-25 16:00:00","2015-03-25 16:00:00",http://static.es.groupon-content.net/69/16/1428649501669.jpg,http://static.es.groupon-content.net/69/16/1428649501669.jpg,http://static.es.groupon-content.net/87/16/1428649501687.jpg,http://static.es.groupon-content.net/87/16/1428649501687.jpg,,,http://static.es.groupon-content.net/69/16/1428649501669.jpg,http://static.es.groupon-content.net/69/16/1428649501669.jpg,"H Top Royal Sun","H Top Royal Sun",0,0,Travel,Travel,0,0,,,41.63249720,41.63249720,2.72059880,2.72059880,1,1,39820.00,39820.00,24500.00,24500.00,0.00,0.00,38.00,38.00,EUR,EUR,ES,ES,viajes-y-hoteles,viajes-y-hoteles,1,1,"2015-04-25 12:06:38","2015-04-25 12:06:38"
