DATETIME|ERRORLEVEL|TAG|VALUE|LINE|FILE
"2016-08-01 00:00:02"|DELETING....|--
"2016-08-01 00:00:05"|1726|"ROWS AFFECTED"
"2016-08-01 00:00:05"|DELETED....|--
"2016-08-01 01:00:02"|"DEALS COUPON USA CANADA STARTED"|--
"2016-08-01 12:00:03"|"DEALS COUPON INTERNATIONAL STARTED"|--
"2016-08-01 12:00:04"|1403|"TOTAL RECORDS CHECKED"
"2016-08-01 12:00:52"|1425|"TOTAL RECORDS CHECKED"
"2016-08-01 12:01:32"||"TOTAL RECORDS CHECKED"
"2016-08-01 12:01:34"|1479|"TOTAL RECORDS CHECKED"
"2016-08-01 12:02:01"|2474|"TOTAL RECORDS CHECKED"
"2016-08-01 12:02:51"|85570|"TOTAL RECORDS IN THE DB"
"2016-08-01 12:02:51"|"DEALS COUPON INTERNATIONAL ENDED"|--
"2016-08-02 00:00:01"|DELETING....|--
"2016-08-02 00:00:04"|1276|"ROWS AFFECTED"
"2016-08-02 00:00:04"|DELETED....|--
"2016-08-02 01:00:01"|"DEALS COUPON USA CANADA STARTED"|--
"2016-08-02 12:00:02"|"DEALS COUPON INTERNATIONAL STARTED"|--
"2016-08-02 12:00:04"|775|"TOTAL RECORDS CHECKED"
"2016-08-02 12:00:33"||"TOTAL RECORDS CHECKED"
"2016-08-02 12:00:34"||"TOTAL RECORDS CHECKED"
"2016-08-02 12:00:37"|2399|"TOTAL RECORDS CHECKED"
"2016-08-02 12:01:25"|85200|"TOTAL RECORDS IN THE DB"
"2016-08-02 12:01:25"|"DEALS COUPON INTERNATIONAL ENDED"|--
"2016-08-03 00:00:01"|DELETING....|--
"2016-08-03 00:00:04"|968|"ROWS AFFECTED"
"2016-08-03 00:00:04"|DELETED....|--
"2016-08-03 01:00:01"|"DEALS COUPON USA CANADA STARTED"|--
"2016-08-03 01:03:40"|85190|"TOTAL RECORDS IN THE DB"
"2016-08-03 01:03:40"|"DEALS COUPON USA CANADA ENDED"|--
"2016-08-03 12:00:02"|"DEALS COUPON INTERNATIONAL STARTED"|--
"2016-08-03 12:00:04"|2586|"TOTAL RECORDS CHECKED"
"2016-08-03 12:00:58"||"TOTAL RECORDS CHECKED"
"2016-08-03 12:00:59"||"TOTAL RECORDS CHECKED"
"2016-08-03 12:01:00"|1512|"TOTAL RECORDS CHECKED"
"2016-08-03 12:01:27"|85679|"TOTAL RECORDS IN THE DB"
"2016-08-03 12:01:27"|"DEALS COUPON INTERNATIONAL ENDED"|--
"2016-08-04 00:00:02"|DELETING....|--
"2016-08-04 00:00:04"|1054|"ROWS AFFECTED"
"2016-08-04 00:00:04"|DELETED....|--
"2016-08-04 01:00:01"|"DEALS COUPON USA CANADA STARTED"|--
"2016-08-04 12:00:03"|"DEALS COUPON INTERNATIONAL STARTED"|--
"2016-08-04 12:00:04"|1469|"TOTAL RECORDS CHECKED"
"2016-08-04 12:00:45"|2643|"TOTAL RECORDS CHECKED"
"2016-08-04 12:01:38"|2536|"TOTAL RECORDS CHECKED"
"2016-08-04 12:03:14"|2168|"TOTAL RECORDS CHECKED"
"2016-08-04 12:04:01"|1422|"TOTAL RECORDS CHECKED"
"2016-08-04 12:04:26"|85965|"TOTAL RECORDS IN THE DB"
"2016-08-04 12:04:26"|"DEALS COUPON INTERNATIONAL ENDED"|--
"2016-08-05 00:00:01"|DELETING....|--
"2016-08-05 00:00:05"|1189|"ROWS AFFECTED"
"2016-08-05 00:00:05"|DELETED....|--
"2016-08-05 01:00:02"|"DEALS COUPON USA CANADA STARTED"|--
"2016-08-05 12:00:02"|"DEALS COUPON INTERNATIONAL STARTED"|--
"2016-08-05 12:00:04"|1194|"TOTAL RECORDS CHECKED"
"2016-08-05 12:01:06"||"TOTAL RECORDS CHECKED"
"2016-08-05 12:01:07"||"TOTAL RECORDS CHECKED"
"2016-08-05 12:01:08"||"TOTAL RECORDS CHECKED"
"2016-08-05 12:01:08"|85283|"TOTAL RECORDS IN THE DB"
"2016-08-05 12:01:08"|"DEALS COUPON INTERNATIONAL ENDED"|--
"2016-08-06 00:00:03"|DELETING....|--
"2016-08-06 00:00:06"|597|"ROWS AFFECTED"
"2016-08-06 00:00:06"|DELETED....|--
"2016-08-06 01:00:02"|"DEALS COUPON USA CANADA STARTED"|--
"2016-08-06 12:00:03"|"DEALS COUPON INTERNATIONAL STARTED"|--
"2016-08-06 12:00:04"||"TOTAL RECORDS CHECKED"
"2016-08-06 12:00:06"|3292|"TOTAL RECORDS CHECKED"
"2016-08-06 12:01:40"|1438|"TOTAL RECORDS CHECKED"
"2016-08-06 12:02:04"|2209|"TOTAL RECORDS CHECKED"
"2016-08-06 12:02:45"||"TOTAL RECORDS CHECKED"
"2016-08-06 12:02:45"|85642|"TOTAL RECORDS IN THE DB"
"2016-08-06 12:02:45"|"DEALS COUPON INTERNATIONAL ENDED"|--
"2016-08-07 00:00:03"|DELETING....|--
"2016-08-07 00:00:12"|961|"ROWS AFFECTED"
"2016-08-07 00:00:12"|DELETED....|--
"2016-08-07 01:00:02"|"DEALS COUPON USA CANADA STARTED"|--
"2016-08-07 12:00:02"|"DEALS COUPON INTERNATIONAL STARTED"|--
"2016-08-07 12:00:03"||"TOTAL RECORDS CHECKED"
"2016-08-07 12:00:03"||"TOTAL RECORDS CHECKED"
"2016-08-07 12:00:04"||"TOTAL RECORDS CHECKED"
"2016-08-07 12:00:05"||"TOTAL RECORDS CHECKED"
"2016-08-07 12:00:06"|85079|"TOTAL RECORDS IN THE DB"
"2016-08-07 12:00:06"|"DEALS COUPON INTERNATIONAL ENDED"|--
"2016-08-08 00:00:01"|DELETING....|--
"2016-08-08 00:00:04"|790|"ROWS AFFECTED"
"2016-08-08 00:00:04"|DELETED....|--
"2016-08-08 01:00:01"|"DEALS COUPON USA CANADA STARTED"|--
"2016-08-08 12:00:03"|"DEALS COUPON INTERNATIONAL STARTED"|--
"2016-08-08 12:00:04"|1493|"TOTAL RECORDS CHECKED"
"2016-08-08 12:00:53"|1433|"TOTAL RECORDS CHECKED"
"2016-08-08 12:01:47"||"TOTAL RECORDS CHECKED"
"2016-08-08 12:01:48"|1467|"TOTAL RECORDS CHECKED"
"2016-08-08 12:02:20"|2456|"TOTAL RECORDS CHECKED"
"2016-08-08 12:03:09"|85393|"TOTAL RECORDS IN THE DB"
"2016-08-08 12:03:09"|"DEALS COUPON INTERNATIONAL ENDED"|--
"2016-08-09 00:00:01"|DELETING....|--
"2016-08-09 00:00:04"|1216|"ROWS AFFECTED"
"2016-08-09 00:00:04"|DELETED....|--
"2016-08-09 01:00:01"|"DEALS COUPON USA CANADA STARTED"|--
"2016-08-09 12:00:03"|"DEALS COUPON INTERNATIONAL STARTED"|--
"2016-08-09 12:00:05"||"TOTAL RECORDS CHECKED"
"2016-08-09 12:00:06"||"TOTAL RECORDS CHECKED"
"2016-08-09 12:00:07"||"TOTAL RECORDS CHECKED"
"2016-08-09 12:00:09"|2534|"TOTAL RECORDS CHECKED"
"2016-08-09 12:00:58"|84901|"TOTAL RECORDS IN THE DB"
"2016-08-09 12:00:58"|"DEALS COUPON INTERNATIONAL ENDED"|--
"2016-08-10 00:00:02"|DELETING....|--
"2016-08-10 00:00:05"|797|"ROWS AFFECTED"
"2016-08-10 00:00:05"|DELETED....|--
"2016-08-10 01:00:01"|"DEALS COUPON USA CANADA STARTED"|--
"2016-08-10 12:00:01"|"DEALS COUPON INTERNATIONAL STARTED"|--
"2016-08-10 12:00:03"|2609|"TOTAL RECORDS CHECKED"
"2016-08-10 12:00:59"||"TOTAL RECORDS CHECKED"
"2016-08-10 12:01:00"||"TOTAL RECORDS CHECKED"
"2016-08-10 12:01:02"|1523|"TOTAL RECORDS CHECKED"
"2016-08-10 12:01:27"|85206|"TOTAL RECORDS IN THE DB"
"2016-08-10 12:01:27"|"DEALS COUPON INTERNATIONAL ENDED"|--
"2016-08-11 00:00:01"|DELETING....|--
"2016-08-11 00:00:03"|1036|"ROWS AFFECTED"
"2016-08-11 00:00:03"|DELETED....|--
"2016-08-11 01:00:01"|"DEALS COUPON USA CANADA STARTED"|--
"2016-08-11 12:00:03"|"DEALS COUPON INTERNATIONAL STARTED"|--
"2016-08-11 12:00:04"|1475|"TOTAL RECORDS CHECKED"
"2016-08-11 12:00:43"|2638|"TOTAL RECORDS CHECKED"
"2016-08-11 12:01:35"|2526|"TOTAL RECORDS CHECKED"
"2016-08-11 12:02:44"|2196|"TOTAL RECORDS CHECKED"
"2016-08-11 12:03:26"|1491|"TOTAL RECORDS CHECKED"
"2016-08-11 12:03:52"|85481|"TOTAL RECORDS IN THE DB"
"2016-08-11 12:03:52"|"DEALS COUPON INTERNATIONAL ENDED"|--
"2016-08-12 00:00:02"|DELETING....|--
"2016-08-12 00:00:05"|1165|"ROWS AFFECTED"
"2016-08-12 00:00:05"|DELETED....|--
"2016-08-12 01:00:02"|"DEALS COUPON USA CANADA STARTED"|--
"2016-08-12 01:03:35"|85622|"TOTAL RECORDS IN THE DB"
"2016-08-12 01:03:35"|"DEALS COUPON USA CANADA ENDED"|--
"2016-08-12 12:00:03"|"DEALS COUPON INTERNATIONAL STARTED"|--
"2016-08-12 12:00:05"|959|"TOTAL RECORDS CHECKED"
"2016-08-12 12:01:24"||"TOTAL RECORDS CHECKED"
"2016-08-12 12:01:25"||"TOTAL RECORDS CHECKED"
"2016-08-12 12:01:25"||"TOTAL RECORDS CHECKED"
"2016-08-12 12:01:25"|85681|"TOTAL RECORDS IN THE DB"
"2016-08-12 12:01:25"|"DEALS COUPON INTERNATIONAL ENDED"|--
"2016-08-13 00:00:02"|DELETING....|--
"2016-08-13 00:00:06"|687|"ROWS AFFECTED"
"2016-08-13 00:00:06"|DELETED....|--
"2016-08-13 01:00:02"|"DEALS COUPON USA CANADA STARTED"|--
"2016-08-13 12:00:01"|"DEALS COUPON INTERNATIONAL STARTED"|--
"2016-08-13 12:00:02"||"TOTAL RECORDS CHECKED"
"2016-08-13 12:00:04"|3368|"TOTAL RECORDS CHECKED"
"2016-08-13 12:01:24"|1504|"TOTAL RECORDS CHECKED"
"2016-08-13 12:01:50"|2224|"TOTAL RECORDS CHECKED"
"2016-08-13 12:02:36"||"TOTAL RECORDS CHECKED"
"2016-08-13 12:02:36"|85940|"TOTAL RECORDS IN THE DB"
"2016-08-13 12:02:36"|"DEALS COUPON INTERNATIONAL ENDED"|--
"2016-08-14 00:00:02"|DELETING....|--
"2016-08-14 00:00:05"|975|"ROWS AFFECTED"
"2016-08-14 00:00:05"|DELETED....|--
"2016-08-14 01:00:01"|"DEALS COUPON USA CANADA STARTED"|--
"2016-08-14 12:00:02"|"DEALS COUPON INTERNATIONAL STARTED"|--
"2016-08-14 12:00:03"||"TOTAL RECORDS CHECKED"
"2016-08-14 12:00:04"||"TOTAL RECORDS CHECKED"
"2016-08-14 12:00:05"||"TOTAL RECORDS CHECKED"
"2016-08-14 12:00:06"||"TOTAL RECORDS CHECKED"
"2016-08-14 12:00:06"|85595|"TOTAL RECORDS IN THE DB"
"2016-08-14 12:00:06"|"DEALS COUPON INTERNATIONAL ENDED"|--
"2016-08-15 00:00:02"|DELETING....|--
"2016-08-15 00:00:05"|757|"ROWS AFFECTED"
"2016-08-15 00:00:05"|DELETED....|--
"2016-08-15 01:00:01"|"DEALS COUPON USA CANADA STARTED"|--
"2016-08-15 12:00:02"|"DEALS COUPON INTERNATIONAL STARTED"|--
"2016-08-15 12:00:04"|1521|"TOTAL RECORDS CHECKED"
"2016-08-15 12:00:50"|1514|"TOTAL RECORDS CHECKED"
"2016-08-15 12:01:29"||"TOTAL RECORDS CHECKED"
"2016-08-15 12:01:30"|1476|"TOTAL RECORDS CHECKED"
"2016-08-15 12:02:01"|2458|"TOTAL RECORDS CHECKED"
"2016-08-15 12:02:51"|85996|"TOTAL RECORDS IN THE DB"
"2016-08-15 12:02:51"|"DEALS COUPON INTERNATIONAL ENDED"|--
"2016-08-16 00:00:03"|DELETING....|--
"2016-08-16 00:00:07"|1293|"ROWS AFFECTED"
"2016-08-16 00:00:07"|DELETED....|--
"2016-08-16 01:00:01"|"DEALS COUPON USA CANADA STARTED"|--
"2016-08-16 12:00:03"|"DEALS COUPON INTERNATIONAL STARTED"|--
"2016-08-16 12:00:05"|831|"TOTAL RECORDS CHECKED"
"2016-08-16 12:00:41"||"TOTAL RECORDS CHECKED"
"2016-08-16 12:00:42"||"TOTAL RECORDS CHECKED"
"2016-08-16 12:00:44"|2430|"TOTAL RECORDS CHECKED"
"2016-08-16 12:01:32"|85538|"TOTAL RECORDS IN THE DB"
"2016-08-16 12:01:32"|"DEALS COUPON INTERNATIONAL ENDED"|--
"2016-08-17 00:00:02"|DELETING....|--
"2016-08-17 00:00:04"|940|"ROWS AFFECTED"
"2016-08-17 00:00:04"|DELETED....|--
"2016-08-17 01:00:01"|"DEALS COUPON USA CANADA STARTED"|--
"2016-08-17 12:00:02"|"DEALS COUPON INTERNATIONAL STARTED"|--
"2016-08-17 12:00:04"|2622|"TOTAL RECORDS CHECKED"
"2016-08-17 12:00:56"||"TOTAL RECORDS CHECKED"
"2016-08-17 12:00:57"||"TOTAL RECORDS CHECKED"
"2016-08-17 12:00:58"|1521|"TOTAL RECORDS CHECKED"
"2016-08-17 12:01:25"|85502|"TOTAL RECORDS IN THE DB"
"2016-08-17 12:01:25"|"DEALS COUPON INTERNATIONAL ENDED"|--
"2016-08-18 00:00:02"|DELETING....|--
"2016-08-18 00:00:05"|1045|"ROWS AFFECTED"
"2016-08-18 00:00:05"|DELETED....|--
"2016-08-18 01:00:02"|"DEALS COUPON USA CANADA STARTED"|--
"2016-08-18 12:00:02"|"DEALS COUPON INTERNATIONAL STARTED"|--
"2016-08-18 12:00:04"|1467|"TOTAL RECORDS CHECKED"
"2016-08-18 12:00:41"|2627|"TOTAL RECORDS CHECKED"
"2016-08-18 12:01:34"||"TOTAL RECORDS CHECKED"
"2016-08-18 12:01:36"|2217|"TOTAL RECORDS CHECKED"
"2016-08-18 12:02:23"|1563|"TOTAL RECORDS CHECKED"
"2016-08-18 12:02:58"|85589|"TOTAL RECORDS IN THE DB"
"2016-08-18 12:02:58"|"DEALS COUPON INTERNATIONAL ENDED"|--
"2016-08-19 00:00:02"|DELETING....|--
"2016-08-19 00:00:05"|1199|"ROWS AFFECTED"
"2016-08-19 00:00:05"|DELETED....|--
"2016-08-19 01:00:02"|"DEALS COUPON USA CANADA STARTED"|--
"2016-08-19 12:00:02"|"DEALS COUPON INTERNATIONAL STARTED"|--
"2016-08-19 12:00:03"|974|"TOTAL RECORDS CHECKED"
"2016-08-19 12:00:24"||"TOTAL RECORDS CHECKED"
"2016-08-19 12:00:24"||"TOTAL RECORDS CHECKED"
"2016-08-19 12:00:25"||"TOTAL RECORDS CHECKED"
"2016-08-19 12:00:27"|84916|"TOTAL RECORDS IN THE DB"
"2016-08-19 12:00:27"|"DEALS COUPON INTERNATIONAL ENDED"|--
"2016-08-20 00:00:02"|DELETING....|--
"2016-08-20 00:00:06"|681|"ROWS AFFECTED"
"2016-08-20 00:00:06"|DELETED....|--
"2016-08-20 01:00:02"|"DEALS COUPON USA CANADA STARTED"|--
"2016-08-20 12:00:02"|"DEALS COUPON INTERNATIONAL STARTED"|--
"2016-08-20 12:00:03"||"TOTAL RECORDS CHECKED"
"2016-08-20 12:00:05"|3501|"TOTAL RECORDS CHECKED"
"2016-08-20 12:01:27"|1550|"TOTAL RECORDS CHECKED"
"2016-08-20 12:01:54"|2207|"TOTAL RECORDS CHECKED"
"2016-08-20 12:02:35"||"TOTAL RECORDS CHECKED"
"2016-08-20 12:02:35"|85250|"TOTAL RECORDS IN THE DB"
"2016-08-20 12:02:35"|"DEALS COUPON INTERNATIONAL ENDED"|--
"2016-08-21 00:00:02"|DELETING....|--
"2016-08-21 00:00:04"|1192|"ROWS AFFECTED"
"2016-08-21 00:00:04"|DELETED....|--
"2016-08-21 01:00:02"|"DEALS COUPON USA CANADA STARTED"|--
"2016-08-21 12:00:03"|"DEALS COUPON INTERNATIONAL STARTED"|--
"2016-08-21 12:00:04"||"TOTAL RECORDS CHECKED"
"2016-08-21 12:00:05"||"TOTAL RECORDS CHECKED"
"2016-08-21 12:00:05"||"TOTAL RECORDS CHECKED"
"2016-08-21 12:00:07"||"TOTAL RECORDS CHECKED"
"2016-08-21 12:00:07"|84535|"TOTAL RECORDS IN THE DB"
"2016-08-21 12:00:07"|"DEALS COUPON INTERNATIONAL ENDED"|--
"2016-08-22 00:00:02"|DELETING....|--
"2016-08-22 00:00:05"|754|"ROWS AFFECTED"
"2016-08-22 00:00:05"|DELETED....|--
"2016-08-22 01:00:02"|"DEALS COUPON USA CANADA STARTED"|--
"2016-08-22 12:00:02"|"DEALS COUPON INTERNATIONAL STARTED"|--
"2016-08-22 12:00:05"|1582|"TOTAL RECORDS CHECKED"
"2016-08-22 12:00:55"|1512|"TOTAL RECORDS CHECKED"
"2016-08-22 12:01:25"||"TOTAL RECORDS CHECKED"
"2016-08-22 12:01:27"|1463|"TOTAL RECORDS CHECKED"
"2016-08-22 12:01:59"|2455|"TOTAL RECORDS CHECKED"
"2016-08-22 12:02:55"|84958|"TOTAL RECORDS IN THE DB"
"2016-08-22 12:02:55"|"DEALS COUPON INTERNATIONAL ENDED"|--
"2016-08-23 00:00:01"|DELETING....|--
"2016-08-23 00:00:04"|1272|"ROWS AFFECTED"
"2016-08-23 00:00:04"|DELETED....|--
"2016-08-23 01:00:01"|"DEALS COUPON USA CANADA STARTED"|--
"2016-08-23 12:00:01"|"DEALS COUPON INTERNATIONAL STARTED"|--
"2016-08-23 12:00:05"|971|"TOTAL RECORDS CHECKED"
"2016-08-23 12:00:45"||"TOTAL RECORDS CHECKED"
"2016-08-23 12:00:46"||"TOTAL RECORDS CHECKED"
"2016-08-23 12:00:48"|2398|"TOTAL RECORDS CHECKED"
"2016-08-23 12:01:42"|84718|"TOTAL RECORDS IN THE DB"
"2016-08-23 12:01:42"|"DEALS COUPON INTERNATIONAL ENDED"|--
"2016-08-24 00:00:02"|DELETING....|--
"2016-08-24 00:00:05"|1071|"ROWS AFFECTED"
"2016-08-24 00:00:05"|DELETED....|--
"2016-08-24 01:00:01"|"DEALS COUPON USA CANADA STARTED"|--
"2016-08-24 12:00:02"|"DEALS COUPON INTERNATIONAL STARTED"|--
"2016-08-24 12:00:04"|2614|"TOTAL RECORDS CHECKED"
"2016-08-24 12:00:57"||"TOTAL RECORDS CHECKED"
"2016-08-24 12:00:58"||"TOTAL RECORDS CHECKED"
"2016-08-24 12:00:59"|1533|"TOTAL RECORDS CHECKED"
"2016-08-24 12:01:27"|84681|"TOTAL RECORDS IN THE DB"
"2016-08-24 12:01:27"|"DEALS COUPON INTERNATIONAL ENDED"|--
"2016-08-25 00:00:02"|DELETING....|--
"2016-08-25 00:00:05"|1197|"ROWS AFFECTED"
"2016-08-25 00:00:05"|DELETED....|--
"2016-08-25 01:00:02"|"DEALS COUPON USA CANADA STARTED"|--
"2016-08-25 12:00:02"|"DEALS COUPON INTERNATIONAL STARTED"|--
"2016-08-25 12:00:04"|1460|"TOTAL RECORDS CHECKED"
"2016-08-25 12:00:43"|2637|"TOTAL RECORDS CHECKED"
"2016-08-25 12:01:30"||"TOTAL RECORDS CHECKED"
"2016-08-25 12:01:32"|2238|"TOTAL RECORDS CHECKED"
"2016-08-25 12:02:13"|1602|"TOTAL RECORDS CHECKED"
"2016-08-25 12:02:45"|84740|"TOTAL RECORDS IN THE DB"
"2016-08-25 12:02:45"|"DEALS COUPON INTERNATIONAL ENDED"|--
"2016-08-26 00:00:02"|DELETING....|--
"2016-08-26 00:00:04"|1310|"ROWS AFFECTED"
"2016-08-26 00:00:04"|DELETED....|--
"2016-08-26 01:00:01"|"DEALS COUPON USA CANADA STARTED"|--
"2016-08-26 12:00:01"|"DEALS COUPON INTERNATIONAL STARTED"|--
"2016-08-26 12:00:03"|970|"TOTAL RECORDS CHECKED"
"2016-08-26 12:00:20"||"TOTAL RECORDS CHECKED"
"2016-08-26 12:00:21"||"TOTAL RECORDS CHECKED"
"2016-08-26 12:00:21"||"TOTAL RECORDS CHECKED"
"2016-08-26 12:00:22"|84062|"TOTAL RECORDS IN THE DB"
"2016-08-26 12:00:22"|"DEALS COUPON INTERNATIONAL ENDED"|--
"2016-08-27 00:00:01"|DELETING....|--
"2016-08-27 00:00:05"|875|"ROWS AFFECTED"
"2016-08-27 00:00:05"|DELETED....|--
"2016-08-27 01:00:02"|"DEALS COUPON USA CANADA STARTED"|--
"2016-08-27 12:00:02"|"DEALS COUPON INTERNATIONAL STARTED"|--
"2016-08-27 12:00:03"||"TOTAL RECORDS CHECKED"
"2016-08-27 12:00:06"|3223|"TOTAL RECORDS CHECKED"
"2016-08-27 12:01:17"|1529|"TOTAL RECORDS CHECKED"
"2016-08-27 12:01:42"|2232|"TOTAL RECORDS CHECKED"
"2016-08-27 12:02:23"||"TOTAL RECORDS CHECKED"
"2016-08-27 12:02:23"|84266|"TOTAL RECORDS IN THE DB"
"2016-08-27 12:02:23"|"DEALS COUPON INTERNATIONAL ENDED"|--
"2016-08-28 00:00:02"|DELETING....|--
"2016-08-28 00:00:05"|1033|"ROWS AFFECTED"
"2016-08-28 00:00:05"|DELETED....|--
"2016-08-28 01:00:02"|"DEALS COUPON USA CANADA STARTED"|--
"2016-08-28 12:00:02"|"DEALS COUPON INTERNATIONAL STARTED"|--
"2016-08-28 12:00:02"||"TOTAL RECORDS CHECKED"
"2016-08-28 12:00:03"||"TOTAL RECORDS CHECKED"
"2016-08-28 12:00:04"||"TOTAL RECORDS CHECKED"
"2016-08-28 12:00:05"||"TOTAL RECORDS CHECKED"
"2016-08-28 12:00:06"|83771|"TOTAL RECORDS IN THE DB"
"2016-08-28 12:00:06"|"DEALS COUPON INTERNATIONAL ENDED"|--
"2016-08-29 00:00:03"|DELETING....|--
"2016-08-29 00:00:05"|997|"ROWS AFFECTED"
"2016-08-29 00:00:05"|DELETED....|--
"2016-08-29 01:00:01"|"DEALS COUPON USA CANADA STARTED"|--
"2016-08-29 12:00:02"|"DEALS COUPON INTERNATIONAL STARTED"|--
"2016-08-29 12:00:03"|1559|"TOTAL RECORDS CHECKED"
"2016-08-29 12:00:47"|1496|"TOTAL RECORDS CHECKED"
"2016-08-29 12:01:14"||"TOTAL RECORDS CHECKED"
"2016-08-29 12:01:17"|1465|"TOTAL RECORDS CHECKED"
"2016-08-29 12:01:46"|2488|"TOTAL RECORDS CHECKED"
"2016-08-29 12:02:34"|84086|"TOTAL RECORDS IN THE DB"
"2016-08-29 12:02:34"|"DEALS COUPON INTERNATIONAL ENDED"|--
"2016-08-30 00:00:02"|DELETING....|--
"2016-08-30 00:00:07"|1344|"ROWS AFFECTED"
"2016-08-30 00:00:07"|DELETED....|--
"2016-08-30 01:00:02"|"DEALS COUPON USA CANADA STARTED"|--
"2016-08-30 12:00:03"|"DEALS COUPON INTERNATIONAL STARTED"|--
"2016-08-30 12:00:06"|935|"TOTAL RECORDS CHECKED"
"2016-08-30 12:00:45"||"TOTAL RECORDS CHECKED"
"2016-08-30 12:00:45"||"TOTAL RECORDS CHECKED"
"2016-08-30 12:00:47"|2419|"TOTAL RECORDS CHECKED"
"2016-08-30 12:01:31"|83667|"TOTAL RECORDS IN THE DB"
"2016-08-30 12:01:31"|"DEALS COUPON INTERNATIONAL ENDED"|--
"2016-08-31 00:00:01"|DELETING....|--
"2016-08-31 00:00:04"|1122|"ROWS AFFECTED"
"2016-08-31 00:00:04"|DELETED....|--
"2016-08-31 01:00:01"|"DEALS COUPON USA CANADA STARTED"|--
"2016-08-31 12:00:03"|"DEALS COUPON INTERNATIONAL STARTED"|--
"2016-08-31 12:00:05"|2613|"TOTAL RECORDS CHECKED"
"2016-08-31 12:00:53"||"TOTAL RECORDS CHECKED"
"2016-08-31 12:00:54"||"TOTAL RECORDS CHECKED"
"2016-08-31 12:00:55"|1539|"TOTAL RECORDS CHECKED"
"2016-08-31 12:01:21"|83691|"TOTAL RECORDS IN THE DB"
"2016-08-31 12:01:21"|"DEALS COUPON INTERNATIONAL ENDED"|--
