DATETIME|ERRORLEVEL|TAG|VALUE|LINE|FILE
"2015-12-01 00:00:03"|DELETING....|--
"2015-12-01 00:00:07"|2252|"ROWS AFFECTED"
"2015-12-01 00:00:07"|DELETED....|--
"2015-12-01 01:00:01"|"DEALS COUPON USA CANADA STARTED"|--
"2015-12-01 12:00:03"|"DEALS COUPON INTERNATIONAL STARTED"|--
"2015-12-01 12:00:05"|1669|"TOTAL RECORDS CHECKED"
"2015-12-01 12:01:36"|0|"TOTAL RECORDS CHECKED"
"2015-12-01 12:01:37"|0|"TOTAL RECORDS CHECKED"
"2015-12-01 12:01:38"|2532|"TOTAL RECORDS CHECKED"
"2015-12-01 12:03:28"|106870|"TOTAL RECORDS IN THE DB"
"2015-12-01 12:03:28"|"DEALS COUPON INTERNATIONAL ENDED"|--
"2015-12-02 00:00:03"|DELETING....|--
"2015-12-02 00:00:08"|1237|"ROWS AFFECTED"
"2015-12-02 00:00:08"|DELETED....|--
"2015-12-02 01:00:01"|"DEALS COUPON USA CANADA STARTED"|--
"2015-12-02 12:00:03"|"DEALS COUPON INTERNATIONAL STARTED"|--
"2015-12-02 12:00:05"|2352|"TOTAL RECORDS CHECKED"
"2015-12-02 12:01:27"|0|"TOTAL RECORDS CHECKED"
"2015-12-02 12:01:28"|2846|"TOTAL RECORDS CHECKED"
"2015-12-02 12:02:59"|1541|"TOTAL RECORDS CHECKED"
"2015-12-02 12:03:48"|106757|"TOTAL RECORDS IN THE DB"
"2015-12-02 12:03:48"|"DEALS COUPON INTERNATIONAL ENDED"|--
"2015-12-03 00:00:04"|DELETING....|--
"2015-12-03 00:00:09"|1251|"ROWS AFFECTED"
"2015-12-03 00:00:09"|DELETED....|--
"2015-12-03 01:00:02"|"DEALS COUPON USA CANADA STARTED"|--
"2015-12-03 12:00:03"|"DEALS COUPON INTERNATIONAL STARTED"|--
"2015-12-03 12:00:05"|1560|"TOTAL RECORDS CHECKED"
"2015-12-03 12:03:01"|2427|"TOTAL RECORDS CHECKED"
"2015-12-03 12:04:48"|3227|"TOTAL RECORDS CHECKED"
"2015-12-03 12:07:26"|1731|"TOTAL RECORDS CHECKED"
"2015-12-03 12:08:29"|784|"TOTAL RECORDS CHECKED"
"2015-12-03 12:08:57"|106633|"TOTAL RECORDS IN THE DB"
"2015-12-03 12:08:57"|"DEALS COUPON INTERNATIONAL ENDED"|--
"2015-12-04 00:00:03"|DELETING....|--
"2015-12-04 00:00:10"|989|"ROWS AFFECTED"
"2015-12-04 00:00:10"|DELETED....|--
"2015-12-04 01:00:02"|"DEALS COUPON USA CANADA STARTED"|--
"2015-12-04 12:00:03"|"DEALS COUPON INTERNATIONAL STARTED"|--
"2015-12-04 12:00:05"|735|"TOTAL RECORDS CHECKED"
"2015-12-04 12:00:45"|0|"TOTAL RECORDS CHECKED"
"2015-12-04 12:00:47"|1|"TOTAL RECORDS CHECKED"
"2015-12-04 12:00:50"|671|"TOTAL RECORDS CHECKED"
"2015-12-04 12:01:13"|106674|"TOTAL RECORDS IN THE DB"
"2015-12-04 12:01:13"|"DEALS COUPON INTERNATIONAL ENDED"|--
"2015-12-05 00:00:03"|DELETING....|--
"2015-12-05 00:00:08"|906|"ROWS AFFECTED"
"2015-12-05 00:00:08"|DELETED....|--
"2015-12-05 01:00:01"|"DEALS COUPON USA CANADA STARTED"|--
"2015-12-05 12:00:03"|"DEALS COUPON INTERNATIONAL STARTED"|--
"2015-12-05 12:00:04"|0|"TOTAL RECORDS CHECKED"
"2015-12-05 12:00:06"|4194|"TOTAL RECORDS CHECKED"
"2015-12-05 12:02:43"|964|"TOTAL RECORDS CHECKED"
"2015-12-05 12:03:09"|1926|"TOTAL RECORDS CHECKED"
"2015-12-05 12:04:04"|0|"TOTAL RECORDS CHECKED"
"2015-12-05 12:04:04"|107215|"TOTAL RECORDS IN THE DB"
"2015-12-05 12:04:04"|"DEALS COUPON INTERNATIONAL ENDED"|--
"2015-12-06 00:00:02"|DELETING....|--
"2015-12-06 00:00:07"|1247|"ROWS AFFECTED"
"2015-12-06 00:00:07"|DELETED....|--
"2015-12-06 01:00:02"|"DEALS COUPON USA CANADA STARTED"|--
"2015-12-06 12:00:03"|"DEALS COUPON INTERNATIONAL STARTED"|--
"2015-12-06 12:00:04"|608|"TOTAL RECORDS CHECKED"
"2015-12-07 00:00:03"|DELETING....|--
"2015-12-07 00:00:07"|943|"ROWS AFFECTED"
"2015-12-07 00:00:07"|DELETED....|--
"2015-12-07 01:00:01"|"DEALS COUPON USA CANADA STARTED"|--
"2015-12-07 12:00:04"|"DEALS COUPON INTERNATIONAL STARTED"|--
"2015-12-07 12:00:06"|950|"TOTAL RECORDS CHECKED"
"2015-12-07 12:01:24"|1251|"TOTAL RECORDS CHECKED"
"2015-12-07 12:03:02"|1283|"TOTAL RECORDS CHECKED"
"2015-12-07 12:03:32"|1444|"TOTAL RECORDS CHECKED"
"2015-12-08 00:00:03"|DELETING....|--
"2015-12-08 00:00:10"|946|"ROWS AFFECTED"
"2015-12-08 00:00:10"|DELETED....|--
"2015-12-08 01:00:01"|"DEALS COUPON USA CANADA STARTED"|--
"2015-12-08 12:00:03"|"DEALS COUPON INTERNATIONAL STARTED"|--
"2015-12-08 12:00:04"|1633|"TOTAL RECORDS CHECKED"
"2015-12-08 12:01:40"|0|"TOTAL RECORDS CHECKED"
"2015-12-08 12:01:41"|0|"TOTAL RECORDS CHECKED"
"2015-12-08 12:01:42"|2534|"TOTAL RECORDS CHECKED"
"2015-12-08 12:03:09"|106392|"TOTAL RECORDS IN THE DB"
"2015-12-08 12:03:09"|"DEALS COUPON INTERNATIONAL ENDED"|--
"2015-12-09 00:00:03"|DELETING....|--
"2015-12-09 00:00:08"|887|"ROWS AFFECTED"
"2015-12-09 00:00:08"|DELETED....|--
"2015-12-09 01:00:01"|"DEALS COUPON USA CANADA STARTED"|--
"2015-12-09 12:00:03"|"DEALS COUPON INTERNATIONAL STARTED"|--
"2015-12-09 12:00:05"|2412|"TOTAL RECORDS CHECKED"
"2015-12-09 12:01:29"|0|"TOTAL RECORDS CHECKED"
"2015-12-09 12:01:31"|2998|"TOTAL RECORDS CHECKED"
"2015-12-09 12:03:18"|1583|"TOTAL RECORDS CHECKED"
"2015-12-09 12:04:08"|106181|"TOTAL RECORDS IN THE DB"
"2015-12-09 12:04:08"|"DEALS COUPON INTERNATIONAL ENDED"|--
"2015-12-10 00:00:03"|DELETING....|--
"2015-12-10 00:00:08"|742|"ROWS AFFECTED"
"2015-12-10 00:00:08"|DELETED....|--
"2015-12-10 01:00:01"|"DEALS COUPON USA CANADA STARTED"|--
"2015-12-10 12:00:03"|"DEALS COUPON INTERNATIONAL STARTED"|--
"2015-12-10 12:00:05"|1561|"TOTAL RECORDS CHECKED"
"2015-12-10 12:00:56"|2436|"TOTAL RECORDS CHECKED"
"2015-12-10 12:01:42"|3230|"TOTAL RECORDS CHECKED"
"2015-12-10 12:03:36"|1783|"TOTAL RECORDS CHECKED"
"2015-12-10 12:04:12"|810|"TOTAL RECORDS CHECKED"
"2015-12-10 12:04:30"|106887|"TOTAL RECORDS IN THE DB"
"2015-12-10 12:04:30"|"DEALS COUPON INTERNATIONAL ENDED"|--
"2015-12-11 00:00:03"|DELETING....|--
"2015-12-11 00:00:08"|1501|"ROWS AFFECTED"
"2015-12-11 00:00:08"|DELETED....|--
"2015-12-11 01:00:02"|"DEALS COUPON USA CANADA STARTED"|--
"2015-12-11 12:00:03"|"DEALS COUPON INTERNATIONAL STARTED"|--
"2015-12-11 12:00:05"|790|"TOTAL RECORDS CHECKED"
"2015-12-11 12:00:35"|0|"TOTAL RECORDS CHECKED"
"2015-12-11 12:00:36"|1|"TOTAL RECORDS CHECKED"
"2015-12-11 12:00:40"|695|"TOTAL RECORDS CHECKED"
"2015-12-11 12:00:52"|106214|"TOTAL RECORDS IN THE DB"
"2015-12-11 12:00:52"|"DEALS COUPON INTERNATIONAL ENDED"|--
"2015-12-12 00:00:03"|DELETING....|--
"2015-12-12 00:00:07"|816|"ROWS AFFECTED"
"2015-12-12 00:00:07"|DELETED....|--
"2015-12-12 01:00:01"|"DEALS COUPON USA CANADA STARTED"|--
"2015-12-12 12:00:03"|"DEALS COUPON INTERNATIONAL STARTED"|--
"2015-12-12 12:00:04"|0|"TOTAL RECORDS CHECKED"
"2015-12-12 12:00:07"|4214|"TOTAL RECORDS CHECKED"
"2015-12-12 12:02:14"|917|"TOTAL RECORDS CHECKED"
"2015-12-12 12:02:31"|2066|"TOTAL RECORDS CHECKED"
"2015-12-12 12:03:10"|0|"TOTAL RECORDS CHECKED"
"2015-12-12 12:03:10"|106539|"TOTAL RECORDS IN THE DB"
"2015-12-12 12:03:10"|"DEALS COUPON INTERNATIONAL ENDED"|--
"2015-12-13 00:00:02"|DELETING....|--
"2015-12-13 00:00:08"|944|"ROWS AFFECTED"
"2015-12-13 00:00:08"|DELETED....|--
"2015-12-13 01:00:02"|"DEALS COUPON USA CANADA STARTED"|--
"2015-12-13 12:00:02"|"DEALS COUPON INTERNATIONAL STARTED"|--
"2015-12-13 12:00:03"|634|"TOTAL RECORDS CHECKED"
"2015-12-14 00:00:02"|DELETING....|--
"2015-12-14 00:00:09"|854|"ROWS AFFECTED"
"2015-12-14 00:00:09"|DELETED....|--
"2015-12-14 01:00:02"|"DEALS COUPON USA CANADA STARTED"|--
"2015-12-14 12:00:02"|"DEALS COUPON INTERNATIONAL STARTED"|--
"2015-12-14 12:00:05"|953|"TOTAL RECORDS CHECKED"
"2015-12-14 12:00:38"|1260|"TOTAL RECORDS CHECKED"
"2015-12-14 12:02:05"|1348|"TOTAL RECORDS CHECKED"
"2015-12-14 12:02:28"|1549|"TOTAL RECORDS CHECKED"
"2015-12-14 12:03:07"|2470|"TOTAL RECORDS CHECKED"
"2015-12-14 12:03:48"|106136|"TOTAL RECORDS IN THE DB"
"2015-12-14 12:03:48"|"DEALS COUPON INTERNATIONAL ENDED"|--
"2015-12-15 00:00:02"|DELETING....|--
"2015-12-15 00:00:09"|541|"ROWS AFFECTED"
"2015-12-15 00:00:09"|DELETED....|--
"2015-12-15 01:00:01"|"DEALS COUPON USA CANADA STARTED"|--
"2015-12-15 12:00:02"|"DEALS COUPON INTERNATIONAL STARTED"|--
"2015-12-15 12:00:04"|1631|"TOTAL RECORDS CHECKED"
"2015-12-15 12:00:49"|0|"TOTAL RECORDS CHECKED"
"2015-12-15 12:00:50"|0|"TOTAL RECORDS CHECKED"
"2015-12-15 12:00:51"|2595|"TOTAL RECORDS CHECKED"
"2015-12-15 12:01:49"|106439|"TOTAL RECORDS IN THE DB"
"2015-12-15 12:01:49"|"DEALS COUPON INTERNATIONAL ENDED"|--
"2015-12-16 00:00:03"|DELETING....|--
"2015-12-16 00:00:10"|1206|"ROWS AFFECTED"
"2015-12-16 00:00:10"|DELETED....|--
"2015-12-16 01:00:02"|"DEALS COUPON USA CANADA STARTED"|--
"2015-12-16 12:00:04"|"DEALS COUPON INTERNATIONAL STARTED"|--
"2015-12-16 12:00:06"|2421|"TOTAL RECORDS CHECKED"
"2015-12-16 12:01:00"|0|"TOTAL RECORDS CHECKED"
"2015-12-16 12:01:02"|3077|"TOTAL RECORDS CHECKED"
"2015-12-16 12:02:04"|1706|"TOTAL RECORDS CHECKED"
"2015-12-16 12:02:35"|106530|"TOTAL RECORDS IN THE DB"
"2015-12-16 12:02:35"|"DEALS COUPON INTERNATIONAL ENDED"|--
"2015-12-17 00:00:04"|DELETING....|--
"2015-12-17 00:00:09"|1049|"ROWS AFFECTED"
"2015-12-17 00:00:09"|DELETED....|--
"2015-12-17 01:00:01"|"DEALS COUPON USA CANADA STARTED"|--
"2015-12-17 12:00:03"|"DEALS COUPON INTERNATIONAL STARTED"|--
"2015-12-17 12:00:06"|1571|"TOTAL RECORDS CHECKED"
"2015-12-17 12:00:52"|2417|"TOTAL RECORDS CHECKED"
"2015-12-17 12:01:37"|3196|"TOTAL RECORDS CHECKED"
"2015-12-17 12:03:19"|1855|"TOTAL RECORDS CHECKED"
"2015-12-17 12:04:06"|838|"TOTAL RECORDS CHECKED"
"2015-12-17 12:04:25"|106766|"TOTAL RECORDS IN THE DB"
"2015-12-17 12:04:25"|"DEALS COUPON INTERNATIONAL ENDED"|--
"2015-12-18 00:00:04"|DELETING....|--
"2015-12-18 00:00:08"|1023|"ROWS AFFECTED"
"2015-12-18 00:00:08"|DELETED....|--
"2015-12-18 01:00:01"|"DEALS COUPON USA CANADA STARTED"|--
"2015-12-18 12:00:04"|"DEALS COUPON INTERNATIONAL STARTED"|--
"2015-12-18 12:00:05"|813|"TOTAL RECORDS CHECKED"
"2015-12-18 12:00:58"|0|"TOTAL RECORDS CHECKED"
"2015-12-18 12:01:00"|1|"TOTAL RECORDS CHECKED"
"2015-12-18 12:01:03"|718|"TOTAL RECORDS CHECKED"
"2015-12-18 12:01:14"|106711|"TOTAL RECORDS IN THE DB"
"2015-12-18 12:01:14"|"DEALS COUPON INTERNATIONAL ENDED"|--
"2015-12-19 00:00:03"|DELETING....|--
"2015-12-19 00:00:07"|1029|"ROWS AFFECTED"
"2015-12-19 00:00:07"|DELETED....|--
"2015-12-19 01:00:02"|"DEALS COUPON USA CANADA STARTED"|--
"2015-12-19 12:00:03"|"DEALS COUPON INTERNATIONAL STARTED"|--
"2015-12-19 12:00:04"|0|"TOTAL RECORDS CHECKED"
"2015-12-19 12:00:07"|4368|"TOTAL RECORDS CHECKED"
"2015-12-19 12:02:29"|1108|"TOTAL RECORDS CHECKED"
"2015-12-19 12:02:51"|2154|"TOTAL RECORDS CHECKED"
"2015-12-19 12:03:32"|0|"TOTAL RECORDS CHECKED"
"2015-12-19 12:03:32"|107005|"TOTAL RECORDS IN THE DB"
"2015-12-19 12:03:32"|"DEALS COUPON INTERNATIONAL ENDED"|--
"2015-12-20 00:00:03"|DELETING....|--
"2015-12-20 00:00:07"|940|"ROWS AFFECTED"
"2015-12-20 00:00:07"|DELETED....|--
"2015-12-20 01:00:01"|"DEALS COUPON USA CANADA STARTED"|--
"2015-12-20 12:00:03"|"DEALS COUPON INTERNATIONAL STARTED"|--
"2015-12-20 12:00:04"|653|"TOTAL RECORDS CHECKED"
"2015-12-21 00:00:03"|DELETING....|--
"2015-12-21 00:00:07"|1081|"ROWS AFFECTED"
"2015-12-21 00:00:07"|DELETED....|--
"2015-12-21 01:00:02"|"DEALS COUPON USA CANADA STARTED"|--
"2015-12-21 12:00:03"|"DEALS COUPON INTERNATIONAL STARTED"|--
"2015-12-21 12:00:05"|891|"TOTAL RECORDS CHECKED"
"2015-12-21 12:00:38"|1340|"TOTAL RECORDS CHECKED"
"2015-12-21 12:01:42"|1404|"TOTAL RECORDS CHECKED"
"2015-12-21 12:02:10"|1690|"TOTAL RECORDS CHECKED"
"2015-12-21 12:02:48"|2544|"TOTAL RECORDS CHECKED"
"2015-12-21 12:03:37"|106349|"TOTAL RECORDS IN THE DB"
"2015-12-21 12:03:37"|"DEALS COUPON INTERNATIONAL ENDED"|--
"2015-12-22 01:00:02"|"DEALS COUPON USA CANADA STARTED"|--
"2015-12-22 12:00:03"|"DEALS COUPON INTERNATIONAL STARTED"|--
"2015-12-22 12:00:04"|1613|"TOTAL RECORDS CHECKED"
"2015-12-22 12:00:55"|0|"TOTAL RECORDS CHECKED"
"2015-12-22 12:00:57"|0|"TOTAL RECORDS CHECKED"
"2015-12-22 12:00:58"|2646|"TOTAL RECORDS CHECKED"
"2015-12-22 12:01:45"|107557|"TOTAL RECORDS IN THE DB"
"2015-12-22 12:01:45"|"DEALS COUPON INTERNATIONAL ENDED"|--
"2015-12-23 00:00:02"|DELETING....|--
"2015-12-23 00:00:06"|1353|"ROWS AFFECTED"
"2015-12-23 00:00:06"|DELETED....|--
"2015-12-23 01:00:01"|"DEALS COUPON USA CANADA STARTED"|--
"2015-12-23 12:00:03"|"DEALS COUPON INTERNATIONAL STARTED"|--
"2015-12-23 12:00:05"|2434|"TOTAL RECORDS CHECKED"
"2015-12-23 12:00:51"|0|"TOTAL RECORDS CHECKED"
"2015-12-23 12:00:53"|3287|"TOTAL RECORDS CHECKED"
"2015-12-23 12:01:58"|1761|"TOTAL RECORDS CHECKED"
"2015-12-23 12:02:28"|106857|"TOTAL RECORDS IN THE DB"
"2015-12-23 12:02:28"|"DEALS COUPON INTERNATIONAL ENDED"|--
"2015-12-24 00:00:03"|DELETING....|--
"2015-12-24 00:00:09"|1030|"ROWS AFFECTED"
"2015-12-24 00:00:09"|DELETED....|--
"2015-12-24 01:00:02"|"DEALS COUPON USA CANADA STARTED"|--
"2015-12-24 12:00:03"|"DEALS COUPON INTERNATIONAL STARTED"|--
"2015-12-24 12:00:06"|1591|"TOTAL RECORDS CHECKED"
"2015-12-24 12:00:54"|2425|"TOTAL RECORDS CHECKED"
"2015-12-24 12:01:40"|3181|"TOTAL RECORDS CHECKED"
"2015-12-24 12:03:31"|1930|"TOTAL RECORDS CHECKED"
"2015-12-24 12:04:08"|845|"TOTAL RECORDS CHECKED"
"2015-12-24 12:04:24"|107471|"TOTAL RECORDS IN THE DB"
"2015-12-24 12:04:24"|"DEALS COUPON INTERNATIONAL ENDED"|--
"2015-12-25 00:00:03"|DELETING....|--
"2015-12-25 00:00:06"|953|"ROWS AFFECTED"
"2015-12-25 00:00:06"|DELETED....|--
"2015-12-25 01:00:01"|"DEALS COUPON USA CANADA STARTED"|--
"2015-12-25 12:00:02"|"DEALS COUPON INTERNATIONAL STARTED"|--
"2015-12-25 12:00:04"|797|"TOTAL RECORDS CHECKED"
"2015-12-25 12:00:51"|0|"TOTAL RECORDS CHECKED"
"2015-12-25 12:00:53"|1|"TOTAL RECORDS CHECKED"
"2015-12-25 12:00:56"|739|"TOTAL RECORDS CHECKED"
"2015-12-25 12:01:08"|107459|"TOTAL RECORDS IN THE DB"
"2015-12-25 12:01:08"|"DEALS COUPON INTERNATIONAL ENDED"|--
"2015-12-26 00:00:02"|DELETING....|--
"2015-12-26 00:00:07"|734|"ROWS AFFECTED"
"2015-12-26 00:00:07"|DELETED....|--
"2015-12-26 01:00:02"|"DEALS COUPON USA CANADA STARTED"|--
"2015-12-26 12:00:01"|"DEALS COUPON INTERNATIONAL STARTED"|--
"2015-12-26 12:00:03"|0|"TOTAL RECORDS CHECKED"
"2015-12-26 12:00:05"|4671|"TOTAL RECORDS CHECKED"
"2015-12-26 12:02:24"|1101|"TOTAL RECORDS CHECKED"
"2015-12-26 12:02:44"|2174|"TOTAL RECORDS CHECKED"
"2015-12-26 12:03:28"|0|"TOTAL RECORDS CHECKED"
"2015-12-26 12:03:28"|107976|"TOTAL RECORDS IN THE DB"
"2015-12-26 12:03:28"|"DEALS COUPON INTERNATIONAL ENDED"|--
"2015-12-27 00:00:04"|DELETING....|--
"2015-12-27 00:00:07"|1263|"ROWS AFFECTED"
"2015-12-27 00:00:07"|DELETED....|--
"2015-12-27 01:00:01"|"DEALS COUPON USA CANADA STARTED"|--
"2015-12-27 12:00:03"|"DEALS COUPON INTERNATIONAL STARTED"|--
"2015-12-27 12:00:05"|687|"TOTAL RECORDS CHECKED"
"2015-12-28 00:00:03"|DELETING....|--
"2015-12-28 00:00:07"|750|"ROWS AFFECTED"
"2015-12-28 00:00:07"|DELETED....|--
"2015-12-28 01:00:02"|"DEALS COUPON USA CANADA STARTED"|--
"2015-12-28 12:00:04"|"DEALS COUPON INTERNATIONAL STARTED"|--
"2015-12-28 12:00:06"|882|"TOTAL RECORDS CHECKED"
"2015-12-28 12:00:34"|1278|"TOTAL RECORDS CHECKED"
"2015-12-28 12:01:48"|1417|"TOTAL RECORDS CHECKED"
"2015-12-28 12:02:16"|1766|"TOTAL RECORDS CHECKED"
"2015-12-28 12:02:58"|2566|"TOTAL RECORDS CHECKED"
"2015-12-28 12:03:47"|107096|"TOTAL RECORDS IN THE DB"
"2015-12-28 12:03:47"|"DEALS COUPON INTERNATIONAL ENDED"|--
"2015-12-29 00:00:03"|DELETING....|--
"2015-12-29 00:00:07"|391|"ROWS AFFECTED"
"2015-12-29 00:00:07"|DELETED....|--
"2015-12-29 01:00:02"|"DEALS COUPON USA CANADA STARTED"|--
"2015-12-29 12:00:03"|"DEALS COUPON INTERNATIONAL STARTED"|--
"2015-12-29 12:00:05"|1627|"TOTAL RECORDS CHECKED"
"2015-12-29 12:00:53"|1|"TOTAL RECORDS CHECKED"
"2015-12-29 12:00:56"|0|"TOTAL RECORDS CHECKED"
"2015-12-29 12:00:57"|2641|"TOTAL RECORDS CHECKED"
"2015-12-29 12:01:57"|107511|"TOTAL RECORDS IN THE DB"
"2015-12-29 12:01:57"|"DEALS COUPON INTERNATIONAL ENDED"|--
"2015-12-30 00:00:03"|DELETING....|--
"2015-12-30 00:00:11"|722|"ROWS AFFECTED"
"2015-12-30 00:00:11"|DELETED....|--
"2015-12-30 01:00:01"|"DEALS COUPON USA CANADA STARTED"|--
"2015-12-30 12:00:03"|"DEALS COUPON INTERNATIONAL STARTED"|--
"2015-12-30 12:00:04"|2424|"TOTAL RECORDS CHECKED"
"2015-12-30 12:00:55"|0|"TOTAL RECORDS CHECKED"
"2015-12-30 12:00:57"|3404|"TOTAL RECORDS CHECKED"
"2015-12-30 12:02:13"|1775|"TOTAL RECORDS CHECKED"
"2015-12-30 12:02:45"|108048|"TOTAL RECORDS IN THE DB"
"2015-12-30 12:02:45"|"DEALS COUPON INTERNATIONAL ENDED"|--
"2015-12-31 00:00:02"|DELETING....|--
"2015-12-31 00:00:08"|1182|"ROWS AFFECTED"
"2015-12-31 00:00:08"|DELETED....|--
"2015-12-31 01:00:02"|"DEALS COUPON USA CANADA STARTED"|--
"2015-12-31 12:00:03"|"DEALS COUPON INTERNATIONAL STARTED"|--
"2015-12-31 12:00:05"|1538|"TOTAL RECORDS CHECKED"
"2015-12-31 12:00:55"|2446|"TOTAL RECORDS CHECKED"
"2015-12-31 12:01:47"|3289|"TOTAL RECORDS CHECKED"
"2015-12-31 12:03:23"|1949|"TOTAL RECORDS CHECKED"
"2015-12-31 12:04:00"|848|"TOTAL RECORDS CHECKED"
"2015-12-31 12:04:18"|107998|"TOTAL RECORDS IN THE DB"
"2015-12-31 12:04:18"|"DEALS COUPON INTERNATIONAL ENDED"|--
