DATETIME|ERRORLEVEL|TAG|VALUE|LINE|FILE
"2015-11-01 00:00:03"|DELETING....|--
"2015-11-01 00:00:07"|2436|"ROWS AFFECTED"
"2015-11-01 00:00:07"|DELETED....|--
"2015-11-01 01:00:02"|"DEALS COUPON USA CANADA STARTED"|--
"2015-11-01 12:00:02"|"DEALS COUPON INTERNATIONAL STARTED"|--
"2015-11-01 12:00:03"|511|"TOTAL RECORDS CHECKED"
"2015-11-01 12:00:18"|1|"TOTAL RECORDS CHECKED"
"2015-11-01 12:00:21"|0|"TOTAL RECORDS CHECKED"
"2015-11-01 12:00:23"|592|"TOTAL RECORDS CHECKED"
"2015-11-01 12:00:34"|109409|"TOTAL RECORDS IN THE DB"
"2015-11-01 12:00:34"|"DEALS COUPON INTERNATIONAL ENDED"|--
"2015-11-02 00:00:03"|DELETING....|--
"2015-11-02 00:00:09"|1483|"ROWS AFFECTED"
"2015-11-02 00:00:09"|DELETED....|--
"2015-11-02 01:00:02"|"DEALS COUPON USA CANADA STARTED"|--
"2015-11-02 12:00:02"|"DEALS COUPON INTERNATIONAL STARTED"|--
"2015-11-02 12:00:05"|1116|"TOTAL RECORDS CHECKED"
"2015-11-02 12:00:37"|1049|"TOTAL RECORDS CHECKED"
"2015-11-02 12:01:19"|1033|"TOTAL RECORDS CHECKED"
"2015-11-02 12:01:42"|1294|"TOTAL RECORDS CHECKED"
"2015-11-02 12:02:14"|6518|"TOTAL RECORDS CHECKED"
"2015-11-02 12:04:18"|109668|"TOTAL RECORDS IN THE DB"
"2015-11-02 12:04:18"|"DEALS COUPON INTERNATIONAL ENDED"|--
"2015-11-03 00:00:02"|DELETING....|--
"2015-11-03 00:00:10"|1105|"ROWS AFFECTED"
"2015-11-03 00:00:10"|DELETED....|--
"2015-11-03 01:00:01"|"DEALS COUPON USA CANADA STARTED"|--
"2015-11-03 12:00:03"|"DEALS COUPON INTERNATIONAL STARTED"|--
"2015-11-03 12:00:05"|3207|"TOTAL RECORDS CHECKED"
"2015-11-03 12:01:22"|840|"TOTAL RECORDS CHECKED"
"2015-11-03 12:01:40"|973|"TOTAL RECORDS CHECKED"
"2015-11-03 12:01:57"|3363|"TOTAL RECORDS CHECKED"
"2015-11-03 12:02:57"|109163|"TOTAL RECORDS IN THE DB"
"2015-11-03 12:02:57"|"DEALS COUPON INTERNATIONAL ENDED"|--
"2015-11-04 00:00:03"|DELETING....|--
"2015-11-04 00:00:13"|603|"ROWS AFFECTED"
"2015-11-04 00:00:13"|DELETED....|--
"2015-11-04 01:00:01"|"DEALS COUPON USA CANADA STARTED"|--
"2015-11-04 12:00:02"|"DEALS COUPON INTERNATIONAL STARTED"|--
"2015-11-04 12:00:04"|2747|"TOTAL RECORDS CHECKED"
"2015-11-04 12:01:01"|0|"TOTAL RECORDS CHECKED"
"2015-11-04 12:01:03"|3179|"TOTAL RECORDS CHECKED"
"2015-11-04 12:02:09"|1199|"TOTAL RECORDS CHECKED"
"2015-11-04 12:02:27"|109300|"TOTAL RECORDS IN THE DB"
"2015-11-04 12:02:27"|"DEALS COUPON INTERNATIONAL ENDED"|--
"2015-11-05 00:00:02"|DELETING....|--
"2015-11-05 00:00:05"|606|"ROWS AFFECTED"
"2015-11-05 00:00:05"|DELETED....|--
"2015-11-05 01:00:02"|"DEALS COUPON USA CANADA STARTED"|--
"2015-11-05 12:00:03"|"DEALS COUPON INTERNATIONAL STARTED"|--
"2015-11-05 12:00:04"|1488|"TOTAL RECORDS CHECKED"
"2015-11-05 12:00:46"|2868|"TOTAL RECORDS CHECKED"
"2015-11-05 12:01:41"|2986|"TOTAL RECORDS CHECKED"
"2015-11-05 12:03:25"|1589|"TOTAL RECORDS CHECKED"
"2015-11-05 12:04:04"|642|"TOTAL RECORDS CHECKED"
"2015-11-05 12:04:18"|109968|"TOTAL RECORDS IN THE DB"
"2015-11-05 12:04:18"|"DEALS COUPON INTERNATIONAL ENDED"|--
"2015-11-06 00:00:01"|DELETING....|--
"2015-11-06 00:00:05"|1130|"ROWS AFFECTED"
"2015-11-06 00:00:05"|DELETED....|--
"2015-11-06 01:00:02"|"DEALS COUPON USA CANADA STARTED"|--
"2015-11-06 12:00:01"|"DEALS COUPON INTERNATIONAL STARTED"|--
"2015-11-06 12:00:03"|674|"TOTAL RECORDS CHECKED"
"2015-11-06 12:00:35"|563|"TOTAL RECORDS CHECKED"
"2015-11-06 12:00:56"|1|"TOTAL RECORDS CHECKED"
"2015-11-06 12:00:59"|637|"TOTAL RECORDS CHECKED"
"2015-11-06 12:01:11"|109404|"TOTAL RECORDS IN THE DB"
"2015-11-06 12:01:11"|"DEALS COUPON INTERNATIONAL ENDED"|--
"2015-11-07 00:00:02"|DELETING....|--
"2015-11-07 00:00:08"|969|"ROWS AFFECTED"
"2015-11-07 00:00:08"|DELETED....|--
"2015-11-07 01:00:02"|"DEALS COUPON USA CANADA STARTED"|--
"2015-11-07 12:00:05"|"DEALS COUPON INTERNATIONAL STARTED"|--
"2015-11-07 12:00:07"|0|"TOTAL RECORDS CHECKED"
"2015-11-07 12:00:09"|4787|"TOTAL RECORDS CHECKED"
"2015-11-07 12:03:07"|1471|"TOTAL RECORDS CHECKED"
"2015-11-07 12:03:38"|1894|"TOTAL RECORDS CHECKED"
"2015-11-07 12:04:47"|1066|"TOTAL RECORDS CHECKED"
"2015-11-07 12:05:12"|109605|"TOTAL RECORDS IN THE DB"
"2015-11-07 12:05:12"|"DEALS COUPON INTERNATIONAL ENDED"|--
"2015-11-08 00:00:02"|DELETING....|--
"2015-11-08 00:00:08"|1106|"ROWS AFFECTED"
"2015-11-08 00:00:08"|DELETED....|--
"2015-11-08 01:00:01"|"DEALS COUPON USA CANADA STARTED"|--
"2015-11-08 12:00:02"|"DEALS COUPON INTERNATIONAL STARTED"|--
"2015-11-08 12:00:03"|553|"TOTAL RECORDS CHECKED"
"2015-11-08 12:00:18"|1|"TOTAL RECORDS CHECKED"
"2015-11-08 12:00:21"|0|"TOTAL RECORDS CHECKED"
"2015-11-08 12:00:22"|591|"TOTAL RECORDS CHECKED"
"2015-11-08 12:00:41"|108985|"TOTAL RECORDS IN THE DB"
"2015-11-08 12:00:41"|"DEALS COUPON INTERNATIONAL ENDED"|--
"2015-11-09 00:00:02"|DELETING....|--
"2015-11-09 00:00:07"|1091|"ROWS AFFECTED"
"2015-11-09 00:00:07"|DELETED....|--
"2015-11-09 01:00:01"|"DEALS COUPON USA CANADA STARTED"|--
"2015-11-09 12:00:02"|"DEALS COUPON INTERNATIONAL STARTED"|--
"2015-11-09 12:00:04"|950|"TOTAL RECORDS CHECKED"
"2015-11-09 12:01:14"|1097|"TOTAL RECORDS CHECKED"
"2015-11-09 12:02:13"|1086|"TOTAL RECORDS CHECKED"
"2015-11-09 12:02:47"|1371|"TOTAL RECORDS CHECKED"
"2015-11-09 12:04:03"|2394|"TOTAL RECORDS CHECKED"
"2015-11-09 12:05:36"|109171|"TOTAL RECORDS IN THE DB"
"2015-11-09 12:05:36"|"DEALS COUPON INTERNATIONAL ENDED"|--
"2015-11-10 00:00:02"|DELETING....|--
"2015-11-10 00:00:07"|1028|"ROWS AFFECTED"
"2015-11-10 00:00:07"|DELETED....|--
"2015-11-10 01:00:02"|"DEALS COUPON USA CANADA STARTED"|--
"2015-11-10 12:00:03"|"DEALS COUPON INTERNATIONAL STARTED"|--
"2015-11-10 12:00:05"|3214|"TOTAL RECORDS CHECKED"
"2015-11-10 12:03:32"|898|"TOTAL RECORDS CHECKED"
"2015-11-10 12:03:55"|1021|"TOTAL RECORDS CHECKED"
"2015-11-10 12:04:35"|2476|"TOTAL RECORDS CHECKED"
"2015-11-10 12:06:01"|108820|"TOTAL RECORDS IN THE DB"
"2015-11-10 12:06:01"|"DEALS COUPON INTERNATIONAL ENDED"|--
"2015-11-11 00:00:01"|DELETING....|--
"2015-11-11 00:00:08"|1097|"ROWS AFFECTED"
"2015-11-11 00:00:08"|DELETED....|--
"2015-11-11 01:00:02"|"DEALS COUPON USA CANADA STARTED"|--
"2015-11-11 12:00:01"|"DEALS COUPON INTERNATIONAL STARTED"|--
"2015-11-11 12:00:03"|2369|"TOTAL RECORDS CHECKED"
"2015-11-11 12:01:33"|0|"TOTAL RECORDS CHECKED"
"2015-11-11 12:01:35"|3310|"TOTAL RECORDS CHECKED"
"2015-11-11 12:02:58"|1260|"TOTAL RECORDS CHECKED"
"2015-11-11 12:03:33"|109366|"TOTAL RECORDS IN THE DB"
"2015-11-11 12:03:33"|"DEALS COUPON INTERNATIONAL ENDED"|--
"2015-11-12 00:00:02"|DELETING....|--
"2015-11-12 00:00:08"|1161|"ROWS AFFECTED"
"2015-11-12 00:00:08"|DELETED....|--
"2015-11-12 01:00:02"|"DEALS COUPON USA CANADA STARTED"|--
"2015-11-12 12:00:01"|"DEALS COUPON INTERNATIONAL STARTED"|--
"2015-11-12 12:00:03"|1506|"TOTAL RECORDS CHECKED"
"2015-11-12 12:01:32"|2864|"TOTAL RECORDS CHECKED"
"2015-11-12 12:02:51"|3332|"TOTAL RECORDS CHECKED"
"2015-11-12 12:05:16"|1631|"TOTAL RECORDS CHECKED"
"2015-11-12 12:06:15"|675|"TOTAL RECORDS CHECKED"
"2015-11-12 12:06:43"|109688|"TOTAL RECORDS IN THE DB"
"2015-11-12 12:06:43"|"DEALS COUPON INTERNATIONAL ENDED"|--
"2015-11-13 00:00:01"|DELETING....|--
"2015-11-13 00:00:05"|1064|"ROWS AFFECTED"
"2015-11-13 00:00:05"|DELETED....|--
"2015-11-13 01:00:02"|"DEALS COUPON USA CANADA STARTED"|--
"2015-11-13 12:00:02"|"DEALS COUPON INTERNATIONAL STARTED"|--
"2015-11-13 12:00:04"|705|"TOTAL RECORDS CHECKED"
"2015-11-13 12:00:48"|605|"TOTAL RECORDS CHECKED"
"2015-11-13 12:01:13"|1|"TOTAL RECORDS CHECKED"
"2015-11-13 12:01:16"|648|"TOTAL RECORDS CHECKED"
"2015-11-13 12:01:37"|109216|"TOTAL RECORDS IN THE DB"
"2015-11-13 12:01:37"|"DEALS COUPON INTERNATIONAL ENDED"|--
"2015-11-14 00:00:02"|DELETING....|--
"2015-11-14 00:00:08"|1801|"ROWS AFFECTED"
"2015-11-14 00:00:08"|DELETED....|--
"2015-11-14 01:00:02"|"DEALS COUPON USA CANADA STARTED"|--
"2015-11-14 12:00:03"|"DEALS COUPON INTERNATIONAL STARTED"|--
"2015-11-14 12:00:04"|0|"TOTAL RECORDS CHECKED"
"2015-11-14 12:00:07"|4857|"TOTAL RECORDS CHECKED"
"2015-11-14 12:03:03"|1342|"TOTAL RECORDS CHECKED"
"2015-11-14 12:03:37"|1889|"TOTAL RECORDS CHECKED"
"2015-11-14 12:04:22"|1136|"TOTAL RECORDS CHECKED"
"2015-11-14 12:04:59"|108606|"TOTAL RECORDS IN THE DB"
"2015-11-14 12:04:59"|"DEALS COUPON INTERNATIONAL ENDED"|--
"2015-11-15 00:00:02"|DELETING....|--
"2015-11-15 00:00:07"|1427|"ROWS AFFECTED"
"2015-11-15 00:00:07"|DELETED....|--
"2015-11-15 01:00:01"|"DEALS COUPON USA CANADA STARTED"|--
"2015-11-15 12:00:03"|"DEALS COUPON INTERNATIONAL STARTED"|--
"2015-11-15 12:00:04"|582|"TOTAL RECORDS CHECKED"
"2015-11-15 12:00:33"|1|"TOTAL RECORDS CHECKED"
"2015-11-15 12:00:36"|0|"TOTAL RECORDS CHECKED"
"2015-11-15 12:00:37"|592|"TOTAL RECORDS CHECKED"
"2015-11-15 12:00:49"|107926|"TOTAL RECORDS IN THE DB"
"2015-11-15 12:00:49"|"DEALS COUPON INTERNATIONAL ENDED"|--
"2015-11-16 00:00:02"|DELETING....|--
"2015-11-16 00:00:08"|1330|"ROWS AFFECTED"
"2015-11-16 00:00:08"|DELETED....|--
"2015-11-16 01:00:01"|"DEALS COUPON USA CANADA STARTED"|--
"2015-11-16 12:00:02"|"DEALS COUPON INTERNATIONAL STARTED"|--
"2015-11-16 12:00:04"|1036|"TOTAL RECORDS CHECKED"
"2015-11-16 12:00:54"|1157|"TOTAL RECORDS CHECKED"
"2015-11-16 12:01:55"|1110|"TOTAL RECORDS CHECKED"
"2015-11-16 12:02:28"|1415|"TOTAL RECORDS CHECKED"
"2015-11-16 12:03:07"|2419|"TOTAL RECORDS CHECKED"
"2015-11-16 12:04:00"|107852|"TOTAL RECORDS IN THE DB"
"2015-11-16 12:04:00"|"DEALS COUPON INTERNATIONAL ENDED"|--
"2015-11-17 00:00:03"|DELETING....|--
"2015-11-17 00:00:08"|1081|"ROWS AFFECTED"
"2015-11-17 00:00:08"|DELETED....|--
"2015-11-17 01:00:01"|"DEALS COUPON USA CANADA STARTED"|--
"2015-11-17 12:00:02"|"DEALS COUPON INTERNATIONAL STARTED"|--
"2015-11-17 12:00:04"|1631|"TOTAL RECORDS CHECKED"
"2015-11-17 12:01:12"|0|"TOTAL RECORDS CHECKED"
"2015-11-17 12:01:13"|0|"TOTAL RECORDS CHECKED"
"2015-11-17 12:01:15"|2477|"TOTAL RECORDS CHECKED"
"2015-11-17 12:02:46"|107037|"TOTAL RECORDS IN THE DB"
"2015-11-17 12:02:46"|"DEALS COUPON INTERNATIONAL ENDED"|--
"2015-11-18 00:00:05"|DELETING....|--
"2015-11-18 00:00:09"|735|"ROWS AFFECTED"
"2015-11-18 00:00:09"|DELETED....|--
"2015-11-18 01:00:02"|"DEALS COUPON USA CANADA STARTED"|--
"2015-11-18 12:00:03"|"DEALS COUPON INTERNATIONAL STARTED"|--
"2015-11-18 12:00:05"|2378|"TOTAL RECORDS CHECKED"
"2015-11-18 12:01:35"|0|"TOTAL RECORDS CHECKED"
"2015-11-18 12:01:37"|3424|"TOTAL RECORDS CHECKED"
"2015-11-18 12:03:18"|1286|"TOTAL RECORDS CHECKED"
"2015-11-18 12:03:48"|107027|"TOTAL RECORDS IN THE DB"
"2015-11-18 12:03:48"|"DEALS COUPON INTERNATIONAL ENDED"|--
"2015-11-19 00:00:04"|DELETING....|--
"2015-11-19 00:00:08"|832|"ROWS AFFECTED"
"2015-11-19 00:00:08"|DELETED....|--
"2015-11-19 01:00:01"|"DEALS COUPON USA CANADA STARTED"|--
"2015-11-19 12:00:02"|"DEALS COUPON INTERNATIONAL STARTED"|--
"2015-11-19 12:00:04"|1480|"TOTAL RECORDS CHECKED"
"2015-11-19 12:01:27"|3008|"TOTAL RECORDS CHECKED"
"2015-11-19 12:02:40"|3294|"TOTAL RECORDS CHECKED"
"2015-11-19 12:04:50"|1681|"TOTAL RECORDS CHECKED"
"2015-11-19 12:05:55"|740|"TOTAL RECORDS CHECKED"
"2015-11-19 12:06:19"|107518|"TOTAL RECORDS IN THE DB"
"2015-11-19 12:06:19"|"DEALS COUPON INTERNATIONAL ENDED"|--
"2015-11-20 00:00:03"|DELETING....|--
"2015-11-20 00:00:07"|963|"ROWS AFFECTED"
"2015-11-20 00:00:07"|DELETED....|--
"2015-11-20 01:00:01"|"DEALS COUPON USA CANADA STARTED"|--
"2015-11-20 12:00:03"|"DEALS COUPON INTERNATIONAL STARTED"|--
"2015-11-20 12:00:05"|740|"TOTAL RECORDS CHECKED"
"2015-11-20 12:00:34"|0|"TOTAL RECORDS CHECKED"
"2015-11-20 12:00:36"|1|"TOTAL RECORDS CHECKED"
"2015-11-20 12:00:39"|709|"TOTAL RECORDS CHECKED"
"2015-11-20 12:00:55"|107749|"TOTAL RECORDS IN THE DB"
"2015-11-20 12:00:55"|"DEALS COUPON INTERNATIONAL ENDED"|--
"2015-11-21 00:00:03"|DELETING....|--
"2015-11-21 00:00:07"|1150|"ROWS AFFECTED"
"2015-11-21 00:00:07"|DELETED....|--
"2015-11-21 01:00:02"|"DEALS COUPON USA CANADA STARTED"|--
"2015-11-21 01:01:27"|107128|"TOTAL RECORDS IN THE DB"
"2015-11-21 01:01:27"|"DEALS COUPON USA CANADA ENDED"|--
"2015-11-21 12:00:02"|"DEALS COUPON INTERNATIONAL STARTED"|--
"2015-11-21 12:00:03"|0|"TOTAL RECORDS CHECKED"
"2015-11-21 12:00:06"|4866|"TOTAL RECORDS CHECKED"
"2015-11-21 12:03:21"|1070|"TOTAL RECORDS CHECKED"
"2015-11-21 12:03:55"|1881|"TOTAL RECORDS CHECKED"
"2015-11-21 12:05:06"|0|"TOTAL RECORDS CHECKED"
"2015-11-21 12:05:06"|107596|"TOTAL RECORDS IN THE DB"
"2015-11-21 12:05:06"|"DEALS COUPON INTERNATIONAL ENDED"|--
"2015-11-22 00:00:03"|DELETING....|--
"2015-11-22 00:00:07"|1054|"ROWS AFFECTED"
"2015-11-22 00:00:07"|DELETED....|--
"2015-11-22 01:00:01"|"DEALS COUPON USA CANADA STARTED"|--
"2015-11-22 12:00:03"|"DEALS COUPON INTERNATIONAL STARTED"|--
"2015-11-22 12:00:05"|626|"TOTAL RECORDS CHECKED"
"2015-11-22 12:00:22"|1|"TOTAL RECORDS CHECKED"
"2015-11-22 12:00:25"|0|"TOTAL RECORDS CHECKED"
"2015-11-22 12:00:26"|590|"TOTAL RECORDS CHECKED"
"2015-11-22 12:00:39"|107231|"TOTAL RECORDS IN THE DB"
"2015-11-22 12:00:39"|"DEALS COUPON INTERNATIONAL ENDED"|--
"2015-11-23 00:00:02"|DELETING....|--
"2015-11-23 00:00:06"|991|"ROWS AFFECTED"
"2015-11-23 00:00:06"|DELETED....|--
"2015-11-23 01:00:01"|"DEALS COUPON USA CANADA STARTED"|--
"2015-11-23 12:00:03"|"DEALS COUPON INTERNATIONAL STARTED"|--
"2015-11-23 12:00:05"|1050|"TOTAL RECORDS CHECKED"
"2015-11-23 12:01:54"|1207|"TOTAL RECORDS CHECKED"
"2015-11-23 12:02:56"|1200|"TOTAL RECORDS CHECKED"
"2015-11-23 12:03:57"|1411|"TOTAL RECORDS CHECKED"
"2015-11-23 12:04:37"|2409|"TOTAL RECORDS CHECKED"
"2015-11-23 12:06:20"|107431|"TOTAL RECORDS IN THE DB"
"2015-11-23 12:06:20"|"DEALS COUPON INTERNATIONAL ENDED"|--
"2015-11-24 00:00:02"|DELETING....|--
"2015-11-24 00:00:09"|1231|"ROWS AFFECTED"
"2015-11-24 00:00:09"|DELETED....|--
"2015-11-24 01:00:01"|"DEALS COUPON USA CANADA STARTED"|--
"2015-11-24 12:00:03"|"DEALS COUPON INTERNATIONAL STARTED"|--
"2015-11-24 12:00:04"|1668|"TOTAL RECORDS CHECKED"
"2015-11-24 12:02:49"|0|"TOTAL RECORDS CHECKED"
"2015-11-24 12:02:50"|0|"TOTAL RECORDS CHECKED"
"2015-11-24 12:02:52"|2487|"TOTAL RECORDS CHECKED"
"2015-11-24 12:04:14"|108112|"TOTAL RECORDS IN THE DB"
"2015-11-24 12:04:14"|"DEALS COUPON INTERNATIONAL ENDED"|--
"2015-11-25 00:00:03"|DELETING....|--
"2015-11-25 00:00:08"|940|"ROWS AFFECTED"
"2015-11-25 00:00:08"|DELETED....|--
"2015-11-25 01:00:01"|"DEALS COUPON USA CANADA STARTED"|--
"2015-11-25 12:00:03"|"DEALS COUPON INTERNATIONAL STARTED"|--
"2015-11-25 12:00:06"|2419|"TOTAL RECORDS CHECKED"
"2015-11-25 12:01:55"|0|"TOTAL RECORDS CHECKED"
"2015-11-25 12:01:57"|3498|"TOTAL RECORDS CHECKED"
"2015-11-25 12:03:43"|1382|"TOTAL RECORDS CHECKED"
"2015-11-25 12:04:29"|108438|"TOTAL RECORDS IN THE DB"
"2015-11-25 12:04:29"|"DEALS COUPON INTERNATIONAL ENDED"|--
"2015-11-26 00:00:03"|DELETING....|--
"2015-11-26 00:00:09"|1226|"ROWS AFFECTED"
"2015-11-26 00:00:09"|DELETED....|--
"2015-11-26 01:00:01"|"DEALS COUPON USA CANADA STARTED"|--
"2015-11-26 12:00:04"|"DEALS COUPON INTERNATIONAL STARTED"|--
"2015-11-26 12:00:06"|1551|"TOTAL RECORDS CHECKED"
"2015-11-26 12:02:26"|2433|"TOTAL RECORDS CHECKED"
"2015-11-26 12:04:10"|3299|"TOTAL RECORDS CHECKED"
"2015-11-26 12:06:35"|1711|"TOTAL RECORDS CHECKED"
"2015-11-26 12:07:20"|782|"TOTAL RECORDS CHECKED"
"2015-11-26 12:07:43"|108560|"TOTAL RECORDS IN THE DB"
"2015-11-26 12:07:43"|"DEALS COUPON INTERNATIONAL ENDED"|--
"2015-11-27 00:00:02"|DELETING....|--
"2015-11-27 00:00:08"|1075|"ROWS AFFECTED"
"2015-11-27 00:00:08"|DELETED....|--
"2015-11-27 01:00:01"|"DEALS COUPON USA CANADA STARTED"|--
"2015-11-27 12:00:03"|"DEALS COUPON INTERNATIONAL STARTED"|--
"2015-11-27 12:00:04"|766|"TOTAL RECORDS CHECKED"
"2015-11-27 12:00:56"|0|"TOTAL RECORDS CHECKED"
"2015-11-27 12:00:58"|1|"TOTAL RECORDS CHECKED"
"2015-11-27 12:01:01"|701|"TOTAL RECORDS CHECKED"
"2015-11-27 12:01:11"|108118|"TOTAL RECORDS IN THE DB"
"2015-11-27 12:01:11"|"DEALS COUPON INTERNATIONAL ENDED"|--
"2015-11-28 00:00:02"|DELETING....|--
"2015-11-28 00:00:07"|901|"ROWS AFFECTED"
"2015-11-28 00:00:07"|DELETED....|--
"2015-11-28 01:00:02"|"DEALS COUPON USA CANADA STARTED"|--
"2015-11-28 12:00:04"|"DEALS COUPON INTERNATIONAL STARTED"|--
"2015-11-28 12:00:05"|0|"TOTAL RECORDS CHECKED"
"2015-11-28 12:00:07"|4805|"TOTAL RECORDS CHECKED"
"2015-11-28 12:03:27"|1233|"TOTAL RECORDS CHECKED"
"2015-11-28 12:03:56"|1899|"TOTAL RECORDS CHECKED"
"2015-11-28 12:05:02"|0|"TOTAL RECORDS CHECKED"
"2015-11-28 12:05:02"|108270|"TOTAL RECORDS IN THE DB"
"2015-11-28 12:05:02"|"DEALS COUPON INTERNATIONAL ENDED"|--
"2015-11-29 00:00:04"|DELETING....|--
"2015-11-29 00:00:11"|1001|"ROWS AFFECTED"
"2015-11-29 00:00:11"|DELETED....|--
"2015-11-29 01:00:01"|"DEALS COUPON USA CANADA STARTED"|--
"2015-11-29 12:00:02"|"DEALS COUPON INTERNATIONAL STARTED"|--
"2015-11-29 12:00:04"|586|"TOTAL RECORDS CHECKED"
"2015-11-30 00:00:01"|DELETING....|--
"2015-11-30 00:00:08"|993|"ROWS AFFECTED"
"2015-11-30 00:00:08"|DELETED....|--
"2015-11-30 01:00:01"|"DEALS COUPON USA CANADA STARTED"|--
"2015-11-30 12:00:03"|"DEALS COUPON INTERNATIONAL STARTED"|--
"2015-11-30 12:00:07"|988|"TOTAL RECORDS CHECKED"
"2015-11-30 12:01:37"|1212|"TOTAL RECORDS CHECKED"
"2015-11-30 12:02:51"|1211|"TOTAL RECORDS CHECKED"
"2015-11-30 12:03:52"|1453|"TOTAL RECORDS CHECKED"
"2015-11-30 12:04:29"|2444|"TOTAL RECORDS CHECKED"
"2015-11-30 12:05:44"|108159|"TOTAL RECORDS IN THE DB"
"2015-11-30 12:05:44"|"DEALS COUPON INTERNATIONAL ENDED"|--
