DATETIME|ERRORLEVEL|TAG|VALUE|LINE|FILE
"2016-10-01 00:00:02"|DELETING....|--
"2016-10-01 00:00:05"|2357|"ROWS AFFECTED"
"2016-10-01 00:00:05"|DELETED....|--
"2016-10-01 01:00:01"|"DEALS COUPON USA CANADA STARTED"|--
"2016-10-01 12:00:03"|"DEALS COUPON INTERNATIONAL STARTED"|--
"2016-10-01 12:00:05"||"TOTAL RECORDS CHECKED"
"2016-10-01 12:01:08"|1393|"TOTAL RECORDS CHECKED"
"2016-10-01 12:01:36"|1688|"TOTAL RECORDS CHECKED"
"2016-10-01 12:02:00"|2199|"TOTAL RECORDS CHECKED"
"2016-10-01 12:02:35"||"TOTAL RECORDS CHECKED"
"2016-10-01 12:02:35"|77814|"TOTAL RECORDS IN THE DB"
"2016-10-01 12:02:35"|"DEALS COUPON INTERNATIONAL ENDED"|--
"2016-10-02 00:00:01"|DELETING....|--
"2016-10-02 00:00:04"|1318|"ROWS AFFECTED"
"2016-10-02 00:00:04"|DELETED....|--
"2016-10-02 01:00:01"|"DEALS COUPON USA CANADA STARTED"|--
"2016-10-02 12:00:02"|"DEALS COUPON INTERNATIONAL STARTED"|--
"2016-10-02 12:00:03"||"TOTAL RECORDS CHECKED"
"2016-10-02 12:00:04"||"TOTAL RECORDS CHECKED"
"2016-10-02 12:00:04"||"TOTAL RECORDS CHECKED"
"2016-10-02 12:00:25"||"TOTAL RECORDS CHECKED"
"2016-10-02 12:00:25"|77017|"TOTAL RECORDS IN THE DB"
"2016-10-02 12:00:25"|"DEALS COUPON INTERNATIONAL ENDED"|--
"2016-10-03 00:00:02"|DELETING....|--
"2016-10-03 00:00:04"|817|"ROWS AFFECTED"
"2016-10-03 00:00:04"|DELETED....|--
"2016-10-03 01:00:01"|"DEALS COUPON USA CANADA STARTED"|--
