DATETIME|ERRORLEVEL|TAG|VALUE|LINE|FILE
"2016-09-01 00:00:01"|DELETING....|--
"2016-09-01 00:00:04"|2421|"ROWS AFFECTED"
"2016-09-01 00:00:04"|DELETED....|--
"2016-09-01 01:00:02"|"DEALS COUPON USA CANADA STARTED"|--
"2016-09-01 12:00:02"|"DEALS COUPON INTERNATIONAL STARTED"|--
"2016-09-01 12:00:04"|1455|"TOTAL RECORDS CHECKED"
"2016-09-01 12:00:42"|2528|"TOTAL RECORDS CHECKED"
"2016-09-01 12:01:35"|0|"TOTAL RECORDS CHECKED"
"2016-09-01 12:01:36"|2171|"TOTAL RECORDS CHECKED"
"2016-09-01 12:02:21"|1593|"TOTAL RECORDS CHECKED"
"2016-09-01 12:02:49"|82628|"TOTAL RECORDS IN THE DB"
"2016-09-01 12:02:49"|"DEALS COUPON INTERNATIONAL ENDED"|--
"2016-09-02 00:00:01"|DELETING....|--
"2016-09-02 00:00:04"|1567|"ROWS AFFECTED"
"2016-09-02 00:00:04"|DELETED....|--
"2016-09-02 01:00:01"|"DEALS COUPON USA CANADA STARTED"|--
"2016-09-02 12:00:02"|"DEALS COUPON INTERNATIONAL STARTED"|--
"2016-09-02 12:00:03"|933|"TOTAL RECORDS CHECKED"
"2016-09-02 12:00:24"||"TOTAL RECORDS CHECKED"
"2016-09-02 12:00:24"||"TOTAL RECORDS CHECKED"
"2016-09-02 12:00:25"||"TOTAL RECORDS CHECKED"
"2016-09-02 12:00:25"|81864|"TOTAL RECORDS IN THE DB"
"2016-09-02 12:00:25"|"DEALS COUPON INTERNATIONAL ENDED"|--
"2016-09-03 00:00:01"|DELETING....|--
"2016-09-03 00:00:05"|845|"ROWS AFFECTED"
"2016-09-03 00:00:05"|DELETED....|--
"2016-09-03 01:00:01"|"DEALS COUPON USA CANADA STARTED"|--
"2016-09-03 12:00:02"|"DEALS COUPON INTERNATIONAL STARTED"|--
"2016-09-03 12:00:03"||"TOTAL RECORDS CHECKED"
"2016-09-03 12:00:05"|1373|"TOTAL RECORDS CHECKED"
"2016-09-03 12:00:40"|1509|"TOTAL RECORDS CHECKED"
"2016-09-03 12:01:05"|2223|"TOTAL RECORDS CHECKED"
"2016-09-03 12:01:43"||"TOTAL RECORDS CHECKED"
"2016-09-03 12:01:43"|82095|"TOTAL RECORDS IN THE DB"
"2016-09-03 12:01:43"|"DEALS COUPON INTERNATIONAL ENDED"|--
"2016-09-04 00:00:02"|DELETING....|--
"2016-09-04 00:00:04"|1087|"ROWS AFFECTED"
"2016-09-04 00:00:04"|DELETED....|--
"2016-09-04 01:00:02"|"DEALS COUPON USA CANADA STARTED"|--
"2016-09-04 12:00:03"|"DEALS COUPON INTERNATIONAL STARTED"|--
"2016-09-04 12:00:03"||"TOTAL RECORDS CHECKED"
"2016-09-04 12:00:04"||"TOTAL RECORDS CHECKED"
"2016-09-04 12:00:05"||"TOTAL RECORDS CHECKED"
"2016-09-04 12:00:06"||"TOTAL RECORDS CHECKED"
"2016-09-04 12:00:06"|81609|"TOTAL RECORDS IN THE DB"
"2016-09-04 12:00:06"|"DEALS COUPON INTERNATIONAL ENDED"|--
"2016-09-05 00:00:02"|DELETING....|--
"2016-09-05 00:00:05"|843|"ROWS AFFECTED"
"2016-09-05 00:00:05"|DELETED....|--
"2016-09-05 01:00:02"|"DEALS COUPON USA CANADA STARTED"|--
"2016-09-05 12:00:03"|"DEALS COUPON INTERNATIONAL STARTED"|--
"2016-09-05 12:00:05"|1508|"TOTAL RECORDS CHECKED"
"2016-09-05 12:00:50"|1483|"TOTAL RECORDS CHECKED"
"2016-09-05 12:01:18"||"TOTAL RECORDS CHECKED"
"2016-09-05 12:01:21"|1454|"TOTAL RECORDS CHECKED"
"2016-09-05 12:01:49"|2432|"TOTAL RECORDS CHECKED"
"2016-09-05 12:02:40"|82006|"TOTAL RECORDS IN THE DB"
"2016-09-05 12:02:40"|"DEALS COUPON INTERNATIONAL ENDED"|--
"2016-09-06 00:00:01"|DELETING....|--
"2016-09-06 00:00:05"|1544|"ROWS AFFECTED"
"2016-09-06 00:00:05"|DELETED....|--
"2016-09-06 01:00:01"|"DEALS COUPON USA CANADA STARTED"|--
"2016-09-06 12:00:01"|"DEALS COUPON INTERNATIONAL STARTED"|--
"2016-09-06 12:00:06"|959|"TOTAL RECORDS CHECKED"
"2016-09-06 12:00:45"||"TOTAL RECORDS CHECKED"
"2016-09-06 12:00:46"||"TOTAL RECORDS CHECKED"
"2016-09-06 12:00:47"|2356|"TOTAL RECORDS CHECKED"
"2016-09-06 12:01:37"|81450|"TOTAL RECORDS IN THE DB"
"2016-09-06 12:01:37"|"DEALS COUPON INTERNATIONAL ENDED"|--
"2016-09-07 00:00:01"|DELETING....|--
"2016-09-07 00:00:04"|1218|"ROWS AFFECTED"
"2016-09-07 00:00:04"|DELETED....|--
"2016-09-07 01:00:02"|"DEALS COUPON USA CANADA STARTED"|--
"2016-09-07 12:00:02"|"DEALS COUPON INTERNATIONAL STARTED"|--
"2016-09-07 12:00:04"|2588|"TOTAL RECORDS CHECKED"
"2016-09-07 12:00:53"||"TOTAL RECORDS CHECKED"
"2016-09-07 12:00:54"||"TOTAL RECORDS CHECKED"
"2016-09-07 12:00:55"|1524|"TOTAL RECORDS CHECKED"
"2016-09-07 12:01:23"|81255|"TOTAL RECORDS IN THE DB"
"2016-09-07 12:01:23"|"DEALS COUPON INTERNATIONAL ENDED"|--
"2016-09-08 00:00:02"|DELETING....|--
"2016-09-08 00:00:05"|1237|"ROWS AFFECTED"
"2016-09-08 00:00:05"|DELETED....|--
"2016-09-08 01:00:01"|"DEALS COUPON USA CANADA STARTED"|--
"2016-09-08 12:00:02"|"DEALS COUPON INTERNATIONAL STARTED"|--
"2016-09-08 12:00:04"|1468|"TOTAL RECORDS CHECKED"
"2016-09-08 12:00:44"|2479|"TOTAL RECORDS CHECKED"
"2016-09-08 12:01:32"|0|"TOTAL RECORDS CHECKED"
"2016-09-08 12:01:34"|2168|"TOTAL RECORDS CHECKED"
"2016-09-08 12:02:15"|1628|"TOTAL RECORDS CHECKED"
"2016-09-08 12:02:45"|81213|"TOTAL RECORDS IN THE DB"
"2016-09-08 12:02:45"|"DEALS COUPON INTERNATIONAL ENDED"|--
"2016-09-09 00:00:02"|DELETING....|--
"2016-09-09 00:00:04"|1273|"ROWS AFFECTED"
"2016-09-09 00:00:04"|DELETED....|--
"2016-09-09 01:00:05"|"DEALS COUPON USA CANADA STARTED"|--
"2016-09-09 12:00:02"|"DEALS COUPON INTERNATIONAL STARTED"|--
"2016-09-09 12:00:04"|938|"TOTAL RECORDS CHECKED"
"2016-09-09 12:00:23"||"TOTAL RECORDS CHECKED"
"2016-09-09 12:00:24"||"TOTAL RECORDS CHECKED"
"2016-09-09 12:00:24"||"TOTAL RECORDS CHECKED"
"2016-09-09 12:00:24"|80642|"TOTAL RECORDS IN THE DB"
"2016-09-09 12:00:24"|"DEALS COUPON INTERNATIONAL ENDED"|--
"2016-09-10 00:00:02"|DELETING....|--
"2016-09-10 00:00:04"|870|"ROWS AFFECTED"
"2016-09-10 00:00:04"|DELETED....|--
"2016-09-10 01:00:01"|"DEALS COUPON USA CANADA STARTED"|--
"2016-09-10 12:00:03"|"DEALS COUPON INTERNATIONAL STARTED"|--
"2016-09-10 12:00:03"||"TOTAL RECORDS CHECKED"
"2016-09-10 12:00:05"|1380|"TOTAL RECORDS CHECKED"
"2016-09-10 12:00:38"|1492|"TOTAL RECORDS CHECKED"
"2016-09-10 12:01:01"|2210|"TOTAL RECORDS CHECKED"
"2016-09-10 12:01:47"||"TOTAL RECORDS CHECKED"
"2016-09-10 12:01:47"|80731|"TOTAL RECORDS IN THE DB"
"2016-09-10 12:01:47"|"DEALS COUPON INTERNATIONAL ENDED"|--
"2016-09-11 00:00:01"|DELETING....|--
"2016-09-11 00:00:04"|1212|"ROWS AFFECTED"
"2016-09-11 00:00:04"|DELETED....|--
"2016-09-11 01:00:02"|"DEALS COUPON USA CANADA STARTED"|--
"2016-09-11 12:00:02"|"DEALS COUPON INTERNATIONAL STARTED"|--
"2016-09-11 12:00:03"||"TOTAL RECORDS CHECKED"
"2016-09-11 12:00:04"||"TOTAL RECORDS CHECKED"
"2016-09-11 12:00:05"||"TOTAL RECORDS CHECKED"
"2016-09-11 12:00:06"||"TOTAL RECORDS CHECKED"
"2016-09-11 12:00:06"|80130|"TOTAL RECORDS IN THE DB"
"2016-09-11 12:00:06"|"DEALS COUPON INTERNATIONAL ENDED"|--
"2016-09-12 00:00:01"|DELETING....|--
"2016-09-12 00:00:04"|869|"ROWS AFFECTED"
"2016-09-12 00:00:04"|DELETED....|--
"2016-09-12 01:00:02"|"DEALS COUPON USA CANADA STARTED"|--
"2016-09-12 12:00:02"|"DEALS COUPON INTERNATIONAL STARTED"|--
"2016-09-12 12:00:04"|1566|"TOTAL RECORDS CHECKED"
"2016-09-12 12:00:47"|1497|"TOTAL RECORDS CHECKED"
"2016-09-12 12:01:18"||"TOTAL RECORDS CHECKED"
"2016-09-12 12:01:20"|1453|"TOTAL RECORDS CHECKED"
"2016-09-12 12:01:51"|2444|"TOTAL RECORDS CHECKED"
"2016-09-12 12:02:44"|80427|"TOTAL RECORDS IN THE DB"
"2016-09-12 12:02:44"|"DEALS COUPON INTERNATIONAL ENDED"|--
"2016-09-13 00:00:02"|DELETING....|--
"2016-09-13 00:00:05"|1295|"ROWS AFFECTED"
"2016-09-13 00:00:05"|DELETED....|--
"2016-09-13 01:00:01"|"DEALS COUPON USA CANADA STARTED"|--
"2016-09-13 12:00:02"|"DEALS COUPON INTERNATIONAL STARTED"|--
"2016-09-13 12:00:05"|976|"TOTAL RECORDS CHECKED"
"2016-09-13 12:00:44"||"TOTAL RECORDS CHECKED"
"2016-09-13 12:00:45"||"TOTAL RECORDS CHECKED"
"2016-09-13 12:00:46"|2363|"TOTAL RECORDS CHECKED"
"2016-09-13 12:01:36"|80169|"TOTAL RECORDS IN THE DB"
"2016-09-13 12:01:36"|"DEALS COUPON INTERNATIONAL ENDED"|--
"2016-09-14 00:00:02"|DELETING....|--
"2016-09-14 00:00:04"|1146|"ROWS AFFECTED"
"2016-09-14 00:00:04"|DELETED....|--
"2016-09-14 01:00:01"|"DEALS COUPON USA CANADA STARTED"|--
"2016-09-14 12:00:02"|"DEALS COUPON INTERNATIONAL STARTED"|--
"2016-09-14 12:00:04"|2602|"TOTAL RECORDS CHECKED"
"2016-09-14 12:00:49"||"TOTAL RECORDS CHECKED"
"2016-09-14 12:00:49"||"TOTAL RECORDS CHECKED"
"2016-09-14 12:00:51"|1528|"TOTAL RECORDS CHECKED"
"2016-09-14 12:01:16"|80072|"TOTAL RECORDS IN THE DB"
"2016-09-14 12:01:16"|"DEALS COUPON INTERNATIONAL ENDED"|--
"2016-09-15 00:00:01"|DELETING....|--
"2016-09-15 00:00:04"|1200|"ROWS AFFECTED"
"2016-09-15 00:00:04"|DELETED....|--
"2016-09-15 01:00:01"|"DEALS COUPON USA CANADA STARTED"|--
"2016-09-15 12:00:02"|"DEALS COUPON INTERNATIONAL STARTED"|--
"2016-09-15 12:00:04"|1480|"TOTAL RECORDS CHECKED"
"2016-09-15 12:00:33"|2469|"TOTAL RECORDS CHECKED"
"2016-09-15 12:02:17"|0|"TOTAL RECORDS CHECKED"
"2016-09-15 12:02:18"|2173|"TOTAL RECORDS CHECKED"
"2016-09-15 12:03:00"|1643|"TOTAL RECORDS CHECKED"
"2016-09-15 12:03:25"|80141|"TOTAL RECORDS IN THE DB"
"2016-09-15 12:03:25"|"DEALS COUPON INTERNATIONAL ENDED"|--
"2016-09-16 00:00:01"|DELETING....|--
"2016-09-16 00:00:04"|1400|"ROWS AFFECTED"
"2016-09-16 00:00:04"|DELETED....|--
"2016-09-16 01:00:01"|"DEALS COUPON USA CANADA STARTED"|--
"2016-09-16 12:00:04"|"DEALS COUPON INTERNATIONAL STARTED"|--
"2016-09-16 12:00:05"|952|"TOTAL RECORDS CHECKED"
"2016-09-16 12:00:23"||"TOTAL RECORDS CHECKED"
"2016-09-16 12:00:23"||"TOTAL RECORDS CHECKED"
"2016-09-16 12:00:24"||"TOTAL RECORDS CHECKED"
"2016-09-16 12:00:24"|79406|"TOTAL RECORDS IN THE DB"
"2016-09-16 12:00:24"|"DEALS COUPON INTERNATIONAL ENDED"|--
"2016-09-17 00:00:02"|DELETING....|--
"2016-09-17 00:00:05"|829|"ROWS AFFECTED"
"2016-09-17 00:00:05"|DELETED....|--
"2016-09-17 01:00:01"|"DEALS COUPON USA CANADA STARTED"|--
"2016-09-17 12:00:02"|"DEALS COUPON INTERNATIONAL STARTED"|--
"2016-09-17 12:00:13"||"TOTAL RECORDS CHECKED"
"2016-09-17 12:01:19"|1399|"TOTAL RECORDS CHECKED"
"2016-09-17 12:02:23"|1588|"TOTAL RECORDS CHECKED"
"2016-09-17 12:03:26"|2203|"TOTAL RECORDS CHECKED"
"2016-09-17 12:04:54"||"TOTAL RECORDS CHECKED"
"2016-09-17 12:04:54"|79626|"TOTAL RECORDS IN THE DB"
"2016-09-17 12:04:54"|"DEALS COUPON INTERNATIONAL ENDED"|--
"2016-09-18 00:00:02"|DELETING....|--
"2016-09-18 00:00:04"|1128|"ROWS AFFECTED"
"2016-09-18 00:00:04"|DELETED....|--
"2016-09-18 01:00:01"|"DEALS COUPON USA CANADA STARTED"|--
"2016-09-18 12:00:01"|"DEALS COUPON INTERNATIONAL STARTED"|--
"2016-09-18 12:00:02"||"TOTAL RECORDS CHECKED"
"2016-09-18 12:00:03"||"TOTAL RECORDS CHECKED"
"2016-09-18 12:00:03"||"TOTAL RECORDS CHECKED"
"2016-09-18 12:00:24"||"TOTAL RECORDS CHECKED"
"2016-09-18 12:00:24"|79062|"TOTAL RECORDS IN THE DB"
"2016-09-18 12:00:24"|"DEALS COUPON INTERNATIONAL ENDED"|--
"2016-09-19 00:00:02"|DELETING....|--
"2016-09-19 00:00:04"|762|"ROWS AFFECTED"
"2016-09-19 00:00:04"|DELETED....|--
"2016-09-19 01:00:01"|"DEALS COUPON USA CANADA STARTED"|--
"2016-09-19 12:00:03"|"DEALS COUPON INTERNATIONAL STARTED"|--
"2016-09-19 12:00:04"|1581|"TOTAL RECORDS CHECKED"
"2016-09-19 12:00:40"|1497|"TOTAL RECORDS CHECKED"
"2016-09-19 12:01:04"||"TOTAL RECORDS CHECKED"
"2016-09-19 12:01:06"|1448|"TOTAL RECORDS CHECKED"
"2016-09-19 12:01:34"|2451|"TOTAL RECORDS CHECKED"
"2016-09-19 12:02:34"|79588|"TOTAL RECORDS IN THE DB"
"2016-09-19 12:02:34"|"DEALS COUPON INTERNATIONAL ENDED"|--
"2016-09-20 00:00:01"|DELETING....|--
"2016-09-20 00:00:04"|1270|"ROWS AFFECTED"
"2016-09-20 00:00:04"|DELETED....|--
"2016-09-20 01:00:01"|"DEALS COUPON USA CANADA STARTED"|--
"2016-09-20 12:00:03"|"DEALS COUPON INTERNATIONAL STARTED"|--
"2016-09-20 12:00:05"|985|"TOTAL RECORDS CHECKED"
"2016-09-20 12:01:07"||"TOTAL RECORDS CHECKED"
"2016-09-20 12:01:08"||"TOTAL RECORDS CHECKED"
"2016-09-20 12:01:09"|2425|"TOTAL RECORDS CHECKED"
"2016-09-20 12:01:52"|79345|"TOTAL RECORDS IN THE DB"
"2016-09-20 12:01:52"|"DEALS COUPON INTERNATIONAL ENDED"|--
"2016-09-21 00:00:02"|DELETING....|--
"2016-09-21 00:00:04"|1059|"ROWS AFFECTED"
"2016-09-21 00:00:04"|DELETED....|--
"2016-09-21 01:00:02"|"DEALS COUPON USA CANADA STARTED"|--
"2016-09-21 12:00:02"|"DEALS COUPON INTERNATIONAL STARTED"|--
"2016-09-21 12:00:04"|2603|"TOTAL RECORDS CHECKED"
"2016-09-21 12:00:48"||"TOTAL RECORDS CHECKED"
"2016-09-21 12:00:48"||"TOTAL RECORDS CHECKED"
"2016-09-21 12:00:49"|1530|"TOTAL RECORDS CHECKED"
"2016-09-21 12:01:16"|79359|"TOTAL RECORDS IN THE DB"
"2016-09-21 12:01:16"|"DEALS COUPON INTERNATIONAL ENDED"|--
"2016-09-22 00:00:02"|DELETING....|--
"2016-09-22 00:00:05"|1128|"ROWS AFFECTED"
"2016-09-22 00:00:05"|DELETED....|--
"2016-09-22 01:00:01"|"DEALS COUPON USA CANADA STARTED"|--
"2016-09-22 12:00:03"|"DEALS COUPON INTERNATIONAL STARTED"|--
"2016-09-22 12:00:04"|1484|"TOTAL RECORDS CHECKED"
"2016-09-22 12:00:37"|2450|"TOTAL RECORDS CHECKED"
"2016-09-22 12:02:21"|0|"TOTAL RECORDS CHECKED"
"2016-09-22 12:02:22"|2179|"TOTAL RECORDS CHECKED"
"2016-09-22 12:03:01"|1641|"TOTAL RECORDS CHECKED"
"2016-09-22 12:03:26"|79445|"TOTAL RECORDS IN THE DB"
"2016-09-22 12:03:26"|"DEALS COUPON INTERNATIONAL ENDED"|--
"2016-09-23 00:00:02"|DELETING....|--
"2016-09-23 00:00:05"|1247|"ROWS AFFECTED"
"2016-09-23 00:00:05"|DELETED....|--
"2016-09-23 01:00:02"|"DEALS COUPON USA CANADA STARTED"|--
"2016-09-23 12:00:03"|"DEALS COUPON INTERNATIONAL STARTED"|--
"2016-09-23 12:00:07"|978|"TOTAL RECORDS CHECKED"
"2016-09-23 12:00:22"||"TOTAL RECORDS CHECKED"
"2016-09-23 12:00:23"||"TOTAL RECORDS CHECKED"
"2016-09-23 12:00:23"||"TOTAL RECORDS CHECKED"
"2016-09-23 12:00:23"|78824|"TOTAL RECORDS IN THE DB"
"2016-09-23 12:00:23"|"DEALS COUPON INTERNATIONAL ENDED"|--
"2016-09-24 00:00:02"|DELETING....|--
"2016-09-24 00:00:05"|779|"ROWS AFFECTED"
"2016-09-24 00:00:05"|DELETED....|--
"2016-09-24 01:00:01"|"DEALS COUPON USA CANADA STARTED"|--
"2016-09-24 12:00:01"|"DEALS COUPON INTERNATIONAL STARTED"|--
"2016-09-24 12:00:02"||"TOTAL RECORDS CHECKED"
"2016-09-24 12:00:04"|1406|"TOTAL RECORDS CHECKED"
"2016-09-24 12:01:34"|1673|"TOTAL RECORDS CHECKED"
"2016-09-24 12:01:56"|2196|"TOTAL RECORDS CHECKED"
"2016-09-24 12:02:32"||"TOTAL RECORDS CHECKED"
"2016-09-24 12:02:32"|79048|"TOTAL RECORDS IN THE DB"
"2016-09-24 12:02:32"|"DEALS COUPON INTERNATIONAL ENDED"|--
"2016-09-25 00:00:02"|DELETING....|--
"2016-09-25 00:00:05"|1228|"ROWS AFFECTED"
"2016-09-25 00:00:05"|DELETED....|--
"2016-09-25 01:00:01"|"DEALS COUPON USA CANADA STARTED"|--
"2016-09-25 12:00:01"|"DEALS COUPON INTERNATIONAL STARTED"|--
"2016-09-25 12:00:04"||"TOTAL RECORDS CHECKED"
"2016-09-25 12:00:04"||"TOTAL RECORDS CHECKED"
"2016-09-25 12:00:05"||"TOTAL RECORDS CHECKED"
"2016-09-25 12:00:26"||"TOTAL RECORDS CHECKED"
"2016-09-25 12:00:26"|78334|"TOTAL RECORDS IN THE DB"
"2016-09-25 12:00:26"|"DEALS COUPON INTERNATIONAL ENDED"|--
"2016-09-26 00:00:02"|DELETING....|--
"2016-09-26 00:00:04"|787|"ROWS AFFECTED"
"2016-09-26 00:00:04"|DELETED....|--
"2016-09-26 01:00:01"|"DEALS COUPON USA CANADA STARTED"|--
"2016-09-26 12:00:01"|"DEALS COUPON INTERNATIONAL STARTED"|--
"2016-09-26 12:00:04"|1565|"TOTAL RECORDS CHECKED"
"2016-09-26 12:00:40"|1465|"TOTAL RECORDS CHECKED"
"2016-09-26 12:01:01"||"TOTAL RECORDS CHECKED"
"2016-09-26 12:01:03"|1464|"TOTAL RECORDS CHECKED"
"2016-09-26 12:01:28"|2473|"TOTAL RECORDS CHECKED"
"2016-09-26 12:02:08"|78796|"TOTAL RECORDS IN THE DB"
"2016-09-26 12:02:08"|"DEALS COUPON INTERNATIONAL ENDED"|--
"2016-09-27 00:00:02"|DELETING....|--
"2016-09-27 00:00:04"|1220|"ROWS AFFECTED"
"2016-09-27 00:00:04"|DELETED....|--
"2016-09-27 01:00:02"|"DEALS COUPON USA CANADA STARTED"|--
"2016-09-27 12:00:02"|"DEALS COUPON INTERNATIONAL STARTED"|--
"2016-09-27 12:00:03"|1013|"TOTAL RECORDS CHECKED"
"2016-09-27 12:00:32"||"TOTAL RECORDS CHECKED"
"2016-09-27 12:00:32"||"TOTAL RECORDS CHECKED"
"2016-09-27 12:00:33"|2446|"TOTAL RECORDS CHECKED"
"2016-09-27 12:01:17"|78541|"TOTAL RECORDS IN THE DB"
"2016-09-27 12:01:17"|"DEALS COUPON INTERNATIONAL ENDED"|--
"2016-09-28 00:00:02"|DELETING....|--
"2016-09-28 00:00:04"|1068|"ROWS AFFECTED"
"2016-09-28 00:00:04"|DELETED....|--
"2016-09-28 01:00:02"|"DEALS COUPON USA CANADA STARTED"|--
"2016-09-28 12:00:01"|"DEALS COUPON INTERNATIONAL STARTED"|--
"2016-09-28 12:00:04"|2604|"TOTAL RECORDS CHECKED"
"2016-09-28 12:00:47"||"TOTAL RECORDS CHECKED"
"2016-09-28 12:00:48"||"TOTAL RECORDS CHECKED"
"2016-09-28 12:00:49"|1536|"TOTAL RECORDS CHECKED"
"2016-09-28 12:01:16"|78436|"TOTAL RECORDS IN THE DB"
"2016-09-28 12:01:16"|"DEALS COUPON INTERNATIONAL ENDED"|--
"2016-09-29 00:00:02"|DELETING....|--
"2016-09-29 00:00:05"|1185|"ROWS AFFECTED"
"2016-09-29 00:00:05"|DELETED....|--
"2016-09-29 01:00:01"|"DEALS COUPON USA CANADA STARTED"|--
"2016-09-29 12:00:02"|"DEALS COUPON INTERNATIONAL STARTED"|--
"2016-09-29 12:00:04"|1538|"TOTAL RECORDS CHECKED"
"2016-09-29 12:00:36"|2441|"TOTAL RECORDS CHECKED"
"2016-09-29 12:01:20"|1132|"TOTAL RECORDS CHECKED"
"2016-09-29 12:01:46"|2296|"TOTAL RECORDS CHECKED"
"2016-09-29 12:02:24"|2039|"TOTAL RECORDS CHECKED"
"2016-09-29 12:02:56"|79371|"TOTAL RECORDS IN THE DB"
"2016-09-29 12:02:56"|"DEALS COUPON INTERNATIONAL ENDED"|--
"2016-09-30 00:00:01"|DELETING....|--
"2016-09-30 00:00:04"|1281|"ROWS AFFECTED"
"2016-09-30 00:00:04"|DELETED....|--
"2016-09-30 01:00:01"|"DEALS COUPON USA CANADA STARTED"|--
"2016-09-30 12:00:02"|"DEALS COUPON INTERNATIONAL STARTED"|--
"2016-09-30 12:00:03"|985|"TOTAL RECORDS CHECKED"
"2016-09-30 12:00:18"||"TOTAL RECORDS CHECKED"
"2016-09-30 12:00:19"||"TOTAL RECORDS CHECKED"
"2016-09-30 12:00:20"||"TOTAL RECORDS CHECKED"
"2016-09-30 12:00:20"|78837|"TOTAL RECORDS IN THE DB"
"2016-09-30 12:00:20"|"DEALS COUPON INTERNATIONAL ENDED"|--
